%!PS-Adobe-3.0 EPSF-3.0
%%Creator: graphviz version 2.50.0 (0)
%%Title: %3
%%Pages: 1
%%BoundingBox: 36 36 6370 602
%%EndComments
save
%%BeginProlog
/DotDict 200 dict def
DotDict begin

/setupLatin1 {
mark
/EncodingVector 256 array def
 EncodingVector 0

ISOLatin1Encoding 0 255 getinterval putinterval
EncodingVector 45 /hyphen put

% Set up ISO Latin 1 character encoding
/starnetISO {
        dup dup findfont dup length dict begin
        { 1 index /FID ne { def }{ pop pop } ifelse
        } forall
        /Encoding EncodingVector def
        currentdict end definefont
} def
/Times-Roman starnetISO def
/Times-Italic starnetISO def
/Times-Bold starnetISO def
/Times-BoldItalic starnetISO def
/Helvetica starnetISO def
/Helvetica-Oblique starnetISO def
/Helvetica-Bold starnetISO def
/Helvetica-BoldOblique starnetISO def
/Courier starnetISO def
/Courier-Oblique starnetISO def
/Courier-Bold starnetISO def
/Courier-BoldOblique starnetISO def
cleartomark
} bind def

%%BeginResource: procset graphviz 0 0
/coord-font-family /Times-Roman def
/default-font-family /Times-Roman def
/coordfont coord-font-family findfont 8 scalefont def

/InvScaleFactor 1.0 def
/set_scale {
       dup 1 exch div /InvScaleFactor exch def
       scale
} bind def

% styles
/solid { [] 0 setdash } bind def
/dashed { [9 InvScaleFactor mul dup ] 0 setdash } bind def
/dotted { [1 InvScaleFactor mul 6 InvScaleFactor mul] 0 setdash } bind def
/invis {/fill {newpath} def /stroke {newpath} def /show {pop newpath} def} bind def
/bold { 2 setlinewidth } bind def
/filled { } bind def
/unfilled { } bind def
/rounded { } bind def
/diagonals { } bind def
/tapered { } bind def

% hooks for setting color 
/nodecolor { sethsbcolor } bind def
/edgecolor { sethsbcolor } bind def
/graphcolor { sethsbcolor } bind def
/nopcolor {pop pop pop} bind def

/beginpage {	% i j npages
	/npages exch def
	/j exch def
	/i exch def
	/str 10 string def
	npages 1 gt {
		gsave
			coordfont setfont
			0 0 moveto
			(\() show i str cvs show (,) show j str cvs show (\)) show
		grestore
	} if
} bind def

/set_font {
	findfont exch
	scalefont setfont
} def

% draw text fitted to its expected width
/alignedtext {			% width text
	/text exch def
	/width exch def
	gsave
		width 0 gt {
			[] 0 setdash
			text stringwidth pop width exch sub text length div 0 text ashow
		} if
	grestore
} def

/boxprim {				% xcorner ycorner xsize ysize
		4 2 roll
		moveto
		2 copy
		exch 0 rlineto
		0 exch rlineto
		pop neg 0 rlineto
		closepath
} bind def

/ellipse_path {
	/ry exch def
	/rx exch def
	/y exch def
	/x exch def
	matrix currentmatrix
	newpath
	x y translate
	rx ry scale
	0 0 1 0 360 arc
	setmatrix
} bind def

/endpage { showpage } bind def
/showpage { } def

/layercolorseq
	[	% layer color sequence - darkest to lightest
		[0 0 0]
		[.2 .8 .8]
		[.4 .8 .8]
		[.6 .8 .8]
		[.8 .8 .8]
	]
def

/layerlen layercolorseq length def

/setlayer {/maxlayer exch def /curlayer exch def
	layercolorseq curlayer 1 sub layerlen mod get
	aload pop sethsbcolor
	/nodecolor {nopcolor} def
	/edgecolor {nopcolor} def
	/graphcolor {nopcolor} def
} bind def

/onlayer { curlayer ne {invis} if } def

/onlayers {
	/myupper exch def
	/mylower exch def
	curlayer mylower lt
	curlayer myupper gt
	or
	{invis} if
} def

/curlayer 0 def

%%EndResource
%%EndProlog
%%BeginSetup
14 default-font-family set_font
% /arrowlength 10 def
% /arrowwidth 5 def

% make sure pdfmark is harmless for PS-interpreters other than Distiller
/pdfmark where {pop} {userdict /pdfmark /cleartomark load put} ifelse
% make '<<' and '>>' safe on PS Level 1 devices
/languagelevel where {pop languagelevel}{1} ifelse
2 lt {
    userdict (<<) cvn ([) cvn load put
    userdict (>>) cvn ([) cvn load put
} if

%%EndSetup
setupLatin1
%%Page: 1 1
%%PageBoundingBox: 36 36 6370 602
%%PageOrientation: Portrait
0 0 1 beginpage
gsave
36 36 6334 566 boxprim clip newpath
1 1 set_scale 0 rotate 40 40 translate
% 0
gsave
1 setlinewidth
0 0 0 nodecolor
2928 540 88.2844 18 ellipse_path stroke
0 0 0 nodecolor
14 /Times-Roman set_font
2868 536.3 moveto 120 (V_3, value>0.126343) alignedtext
grestore
% 1
gsave
1 setlinewidth
0 0 0 nodecolor
2343 453 82.5854 18 ellipse_path stroke
0 0 0 nodecolor
14 /Times-Roman set_font
2287.5 449.3 moveto 111 (f_PWM, value>768) alignedtext
grestore
% 0->1
gsave
1 setlinewidth
0 0 0 edgecolor
newpath 2858.3062 528.8736 moveto
2748.0218 512.8493 2534.0821 481.7641 2419.6229 465.1332 curveto
stroke
0 0 0 edgecolor
newpath 2419.9362 461.6421 moveto
2409.5368 463.6677 lineto
2418.9296 468.5694 lineto
closepath fill
1 setlinewidth
solid
0 0 0 edgecolor
newpath 2419.9362 461.6421 moveto
2409.5368 463.6677 lineto
2418.9296 468.5694 lineto
closepath stroke
0 0 0 edgecolor
14 /Times-Roman set_font
2671 492.8 moveto 17 (No) alignedtext
grestore
% 2
gsave
1 setlinewidth
0 0 0 nodecolor
3908 453 82.5854 18 ellipse_path stroke
0 0 0 nodecolor
14 /Times-Roman set_font
3852.5 449.3 moveto 111 (f_PWM, value>768) alignedtext
grestore
% 0->2
gsave
1 setlinewidth
0 0 0 edgecolor
newpath 3007.782 532.0801 moveto
3189.9586 516.2791 3635.2181 477.6597 3822.6378 461.4039 curveto
stroke
0 0 0 edgecolor
newpath 3823.0575 464.8807 moveto
3832.7176 460.5296 lineto
3822.4525 457.9069 lineto
closepath fill
1 setlinewidth
solid
0 0 0 edgecolor
newpath 3823.0575 464.8807 moveto
3832.7176 460.5296 lineto
3822.4525 457.9069 lineto
closepath stroke
0 0 0 edgecolor
14 /Times-Roman set_font
3477 492.8 moveto 21 (Yes) alignedtext
grestore
% 3
gsave
1 setlinewidth
0 0 0 nodecolor
1173 366 96.6831 18 ellipse_path stroke
0 0 0 nodecolor
14 /Times-Roman set_font
1106.5 362.3 moveto 133 (V_TEG, value>2.08191) alignedtext
grestore
% 1->3
gsave
1 setlinewidth
0 0 0 edgecolor
newpath 2265.7806 446.39 moveto
2060.2196 431.4561 1499.8322 390.7442 1271.6519 374.167 curveto
stroke
0 0 0 edgecolor
newpath 1271.5962 370.6538 moveto
1261.3689 373.42 lineto
1271.089 377.6354 lineto
closepath fill
1 setlinewidth
solid
0 0 0 edgecolor
newpath 1271.5962 370.6538 moveto
1261.3689 373.42 lineto
1271.089 377.6354 lineto
closepath stroke
0 0 0 edgecolor
14 /Times-Roman set_font
1829 405.8 moveto 17 (No) alignedtext
grestore
% 4
gsave
1 setlinewidth
0 0 0 nodecolor
2343 366 96.6831 18 ellipse_path stroke
0 0 0 nodecolor
14 /Times-Roman set_font
2276.5 362.3 moveto 133 (V_TEG, value>2.08191) alignedtext
grestore
% 1->4
gsave
1 setlinewidth
0 0 0 edgecolor
newpath 2343 434.799 moveto
2343 423.1626 2343 407.5479 2343 394.2368 curveto
stroke
0 0 0 edgecolor
newpath 2346.5001 394.1754 moveto
2343 384.1754 lineto
2339.5001 394.1755 lineto
closepath fill
1 setlinewidth
solid
0 0 0 edgecolor
newpath 2346.5001 394.1754 moveto
2343 384.1754 lineto
2339.5001 394.1755 lineto
closepath stroke
0 0 0 edgecolor
14 /Times-Roman set_font
2343 405.8 moveto 21 (Yes) alignedtext
grestore
% 5
gsave
1 setlinewidth
0 0 0 nodecolor
3908 366 96.6831 18 ellipse_path stroke
0 0 0 nodecolor
14 /Times-Roman set_font
3841.5 362.3 moveto 133 (V_TEG, value>2.08191) alignedtext
grestore
% 2->5
gsave
1 setlinewidth
0 0 0 edgecolor
newpath 3908 434.799 moveto
3908 423.1626 3908 407.5479 3908 394.2368 curveto
stroke
0 0 0 edgecolor
newpath 3911.5001 394.1754 moveto
3908 384.1754 lineto
3904.5001 394.1755 lineto
closepath fill
1 setlinewidth
solid
0 0 0 edgecolor
newpath 3911.5001 394.1754 moveto
3908 384.1754 lineto
3904.5001 394.1755 lineto
closepath stroke
0 0 0 edgecolor
14 /Times-Roman set_font
3908 405.8 moveto 17 (No) alignedtext
grestore
% 6
gsave
1 setlinewidth
0 0 0 nodecolor
5063 366 96.6831 18 ellipse_path stroke
0 0 0 nodecolor
14 /Times-Roman set_font
4996.5 362.3 moveto 133 (V_TEG, value>2.08191) alignedtext
grestore
% 2->6
gsave
1 setlinewidth
0 0 0 edgecolor
newpath 3985.1262 446.324 moveto
4188.4706 431.3593 4739.0127 390.8432 4964.5854 374.2426 curveto
stroke
0 0 0 edgecolor
newpath 4965.0373 377.7189 moveto
4974.7534 373.4943 lineto
4964.5235 370.7378 lineto
closepath fill
1 setlinewidth
solid
0 0 0 edgecolor
newpath 4965.0373 377.7189 moveto
4974.7534 373.4943 lineto
4964.5235 370.7378 lineto
closepath stroke
0 0 0 edgecolor
14 /Times-Roman set_font
4555 405.8 moveto 21 (Yes) alignedtext
grestore
% 7
gsave
1 setlinewidth
0 0 0 nodecolor
598 279 79.0865 18 ellipse_path stroke
0 0 0 nodecolor
14 /Times-Roman set_font
545 275.3 moveto 106 (V_3, value>1.0437) alignedtext
grestore
% 3->7
gsave
1 setlinewidth
0 0 0 edgecolor
newpath 1099.8841 354.1916 moveto
990.0352 337.953 783.5158 307.4241 672.7291 291.0469 curveto
stroke
0 0 0 edgecolor
newpath 673.0434 287.5554 moveto
662.6391 289.5553 lineto
672.0197 294.4802 lineto
closepath fill
1 setlinewidth
solid
0 0 0 edgecolor
newpath 673.0434 287.5554 moveto
662.6391 289.5553 lineto
672.0197 294.4802 lineto
closepath stroke
0 0 0 edgecolor
14 /Times-Roman set_font
920 318.8 moveto 17 (No) alignedtext
grestore
% 8
gsave
1 setlinewidth
0 0 0 nodecolor
1173 279 79.0865 18 ellipse_path stroke
0 0 0 nodecolor
14 /Times-Roman set_font
1120 275.3 moveto 106 (V_3, value>1.0437) alignedtext
grestore
% 3->8
gsave
1 setlinewidth
0 0 0 edgecolor
newpath 1173 347.799 moveto
1173 336.1626 1173 320.5479 1173 307.2368 curveto
stroke
0 0 0 edgecolor
newpath 1176.5001 307.1754 moveto
1173 297.1754 lineto
1169.5001 307.1755 lineto
closepath fill
1 setlinewidth
solid
0 0 0 edgecolor
newpath 1176.5001 307.1754 moveto
1173 297.1754 lineto
1169.5001 307.1755 lineto
closepath stroke
0 0 0 edgecolor
14 /Times-Roman set_font
1173 318.8 moveto 21 (Yes) alignedtext
grestore
% 9
gsave
1 setlinewidth
0 0 0 nodecolor
2148 279 79.0865 18 ellipse_path stroke
0 0 0 nodecolor
14 /Times-Roman set_font
2095 275.3 moveto 106 (V_3, value>1.0437) alignedtext
grestore
% 4->9
gsave
1 setlinewidth
0 0 0 edgecolor
newpath 2306.779 349.2114 moveto
2274.4619 335.1244 2227.0397 314.4532 2192.4385 299.3706 curveto
stroke
0 0 0 edgecolor
newpath 2193.6079 296.0624 moveto
2183.0424 295.2749 lineto
2190.8108 302.4792 lineto
closepath fill
1 setlinewidth
solid
0 0 0 edgecolor
newpath 2193.6079 296.0624 moveto
2183.0424 295.2749 lineto
2190.8108 302.4792 lineto
closepath stroke
0 0 0 edgecolor
14 /Times-Roman set_font
2258 318.8 moveto 17 (No) alignedtext
grestore
% 10
gsave
1 setlinewidth
0 0 0 nodecolor
2635 279 79.0865 18 ellipse_path stroke
0 0 0 nodecolor
14 /Times-Roman set_font
2582 275.3 moveto 106 (V_3, value>1.0437) alignedtext
grestore
% 4->10
gsave
1 setlinewidth
0 0 0 edgecolor
newpath 2392.8648 350.4846 moveto
2444.3883 335.4863 2524.6664 312.1177 2578.5048 296.4455 curveto
stroke
0 0 0 edgecolor
newpath 2579.6138 299.7681 moveto
2588.237 293.6125 lineto
2577.6573 293.047 lineto
closepath fill
1 setlinewidth
solid
0 0 0 edgecolor
newpath 2579.6138 299.7681 moveto
2588.237 293.6125 lineto
2577.6573 293.047 lineto
closepath stroke
0 0 0 edgecolor
14 /Times-Roman set_font
2507 318.8 moveto 21 (Yes) alignedtext
grestore
% 11
gsave
1 setlinewidth
0 0 0 nodecolor
3747 279 79.0865 18 ellipse_path stroke
0 0 0 nodecolor
14 /Times-Roman set_font
3694 275.3 moveto 106 (V_3, value>1.0437) alignedtext
grestore
% 5->11
gsave
1 setlinewidth
0 0 0 edgecolor
newpath 3877.3382 348.8121 moveto
3851.3538 335.0936 3813.9477 315.3451 3785.867 300.5198 curveto
stroke
0 0 0 edgecolor
newpath 3787.2088 297.2704 moveto
3776.7314 295.6967 lineto
3783.9406 303.4607 lineto
closepath fill
1 setlinewidth
solid
0 0 0 edgecolor
newpath 3787.2088 297.2704 moveto
3776.7314 295.6967 lineto
3783.9406 303.4607 lineto
closepath stroke
0 0 0 edgecolor
14 /Times-Roman set_font
3838 318.8 moveto 17 (No) alignedtext
grestore
% 12
gsave
1 setlinewidth
0 0 0 nodecolor
4176 279 79.0865 18 ellipse_path stroke
0 0 0 nodecolor
14 /Times-Roman set_font
4123 275.3 moveto 106 (V_3, value>1.0437) alignedtext
grestore
% 5->12
gsave
1 setlinewidth
0 0 0 edgecolor
newpath 3954.682 350.1941 moveto
4001.2624 335.4205 4072.7761 312.7389 4121.8295 297.181 curveto
stroke
0 0 0 edgecolor
newpath 4123.1586 300.4313 moveto
4131.6325 294.0718 lineto
4121.0423 293.7588 lineto
closepath fill
1 setlinewidth
solid
0 0 0 edgecolor
newpath 4123.1586 300.4313 moveto
4131.6325 294.0718 lineto
4121.0423 293.7588 lineto
closepath stroke
0 0 0 edgecolor
14 /Times-Roman set_font
4059 318.8 moveto 21 (Yes) alignedtext
grestore
% 13
gsave
1 setlinewidth
0 0 0 nodecolor
5063 279 79.0865 18 ellipse_path stroke
0 0 0 nodecolor
14 /Times-Roman set_font
5010 275.3 moveto 106 (V_3, value>1.0437) alignedtext
grestore
% 6->13
gsave
1 setlinewidth
0 0 0 edgecolor
newpath 5063 347.799 moveto
5063 336.1626 5063 320.5479 5063 307.2368 curveto
stroke
0 0 0 edgecolor
newpath 5066.5001 307.1754 moveto
5063 297.1754 lineto
5059.5001 307.1755 lineto
closepath fill
1 setlinewidth
solid
0 0 0 edgecolor
newpath 5066.5001 307.1754 moveto
5063 297.1754 lineto
5059.5001 307.1755 lineto
closepath stroke
0 0 0 edgecolor
14 /Times-Roman set_font
5063 318.8 moveto 17 (No) alignedtext
grestore
% 14
gsave
1 setlinewidth
0 0 0 nodecolor
5648 279 79.0865 18 ellipse_path stroke
0 0 0 nodecolor
14 /Times-Roman set_font
5595 275.3 moveto 106 (V_3, value>1.0437) alignedtext
grestore
% 6->14
gsave
1 setlinewidth
0 0 0 edgecolor
newpath 5136.7942 354.2778 moveto
5248.7549 338.01 5460.392 307.2593 5573.04 290.8916 curveto
stroke
0 0 0 edgecolor
newpath 5573.5708 294.3513 moveto
5582.9636 289.4497 lineto
5572.5642 287.4241 lineto
closepath fill
1 setlinewidth
solid
0 0 0 edgecolor
newpath 5573.5708 294.3513 moveto
5582.9636 289.4497 lineto
5572.5642 287.4241 lineto
closepath stroke
0 0 0 edgecolor
14 /Times-Roman set_font
5391 318.8 moveto 21 (Yes) alignedtext
grestore
% 15
gsave
1 setlinewidth
0 0 0 nodecolor
334 192 88.2844 18 ellipse_path stroke
0 0 0 nodecolor
14 /Times-Roman set_font
274 188.3 moveto 120 (V_1, value>0.314332) alignedtext
grestore
% 7->15
gsave
1 setlinewidth
0 0 0 edgecolor
newpath 554.4058 263.964 moveto
509.1916 249.4064 438.3661 226.6027 389.2556 210.7906 curveto
stroke
0 0 0 edgecolor
newpath 390.0216 207.3604 moveto
379.4302 207.6271 lineto
387.8763 214.0235 lineto
closepath fill
1 setlinewidth
solid
0 0 0 edgecolor
newpath 390.0216 207.3604 moveto
379.4302 207.6271 lineto
387.8763 214.0235 lineto
closepath stroke
0 0 0 edgecolor
14 /Times-Roman set_font
482 231.8 moveto 17 (No) alignedtext
grestore
% 16
gsave
1 setlinewidth
0 0 0 nodecolor
598 192 88.2844 18 ellipse_path stroke
0 0 0 nodecolor
14 /Times-Roman set_font
538 188.3 moveto 120 (V_1, value>0.314332) alignedtext
grestore
% 7->16
gsave
1 setlinewidth
0 0 0 edgecolor
newpath 598 260.799 moveto
598 249.1626 598 233.5479 598 220.2368 curveto
stroke
0 0 0 edgecolor
newpath 601.5001 220.1754 moveto
598 210.1754 lineto
594.5001 220.1755 lineto
closepath fill
1 setlinewidth
solid
0 0 0 edgecolor
newpath 601.5001 220.1754 moveto
598 210.1754 lineto
594.5001 220.1755 lineto
closepath stroke
0 0 0 edgecolor
14 /Times-Roman set_font
598 231.8 moveto 21 (Yes) alignedtext
grestore
% 17
gsave
1 setlinewidth
0 0 0 nodecolor
1114 192 88.2844 18 ellipse_path stroke
0 0 0 nodecolor
14 /Times-Roman set_font
1054 188.3 moveto 120 (V_1, value>0.314332) alignedtext
grestore
% 8->17
gsave
1 setlinewidth
0 0 0 edgecolor
newpath 1161.0605 260.799 moveto
1152.6083 248.6221 1141.1323 232.0889 1131.629 218.3977 curveto
stroke
0 0 0 edgecolor
newpath 1134.2979 216.1046 moveto
1125.7204 209.8854 lineto
1128.5474 220.0961 lineto
closepath fill
1 setlinewidth
solid
0 0 0 edgecolor
newpath 1134.2979 216.1046 moveto
1125.7204 209.8854 lineto
1128.5474 220.0961 lineto
closepath stroke
0 0 0 edgecolor
14 /Times-Roman set_font
1148 231.8 moveto 17 (No) alignedtext
grestore
% 18
gsave
1 setlinewidth
0 0 0 nodecolor
1309 192 88.2844 18 ellipse_path stroke
0 0 0 nodecolor
14 /Times-Roman set_font
1249 188.3 moveto 120 (V_1, value>0.314332) alignedtext
grestore
% 8->18
gsave
1 setlinewidth
0 0 0 edgecolor
newpath 1198.9007 261.8121 moveto
1220.2222 248.4861 1250.6477 229.4702 1274.1133 214.8042 curveto
stroke
0 0 0 edgecolor
newpath 1276.1075 217.6852 moveto
1282.7325 209.4172 lineto
1272.3975 211.7492 lineto
closepath fill
1 setlinewidth
solid
0 0 0 edgecolor
newpath 1276.1075 217.6852 moveto
1282.7325 209.4172 lineto
1272.3975 211.7492 lineto
closepath stroke
0 0 0 edgecolor
14 /Times-Roman set_font
1250 231.8 moveto 21 (Yes) alignedtext
grestore
% 19
gsave
1 setlinewidth
0 0 0 nodecolor
1894 192 88.2844 18 ellipse_path stroke
0 0 0 nodecolor
14 /Times-Roman set_font
1834 188.3 moveto 120 (V_1, value>0.314332) alignedtext
grestore
% 9->19
gsave
1 setlinewidth
0 0 0 edgecolor
newpath 2105.4861 263.7729 moveto
2062.1083 249.2567 1994.6644 226.6869 1947.6404 210.9505 curveto
stroke
0 0 0 edgecolor
newpath 1948.5258 207.5561 moveto
1937.932 207.7016 lineto
1946.3043 214.1943 lineto
closepath fill
1 setlinewidth
solid
0 0 0 edgecolor
newpath 1948.5258 207.5561 moveto
1937.932 207.7016 lineto
1946.3043 214.1943 lineto
closepath stroke
0 0 0 edgecolor
14 /Times-Roman set_font
2037 231.8 moveto 17 (No) alignedtext
grestore
% 20
gsave
1 setlinewidth
0 0 0 nodecolor
2148 192 88.2844 18 ellipse_path stroke
0 0 0 nodecolor
14 /Times-Roman set_font
2088 188.3 moveto 120 (V_1, value>0.314332) alignedtext
grestore
% 9->20
gsave
1 setlinewidth
0 0 0 edgecolor
newpath 2148 260.799 moveto
2148 249.1626 2148 233.5479 2148 220.2368 curveto
stroke
0 0 0 edgecolor
newpath 2151.5001 220.1754 moveto
2148 210.1754 lineto
2144.5001 220.1755 lineto
closepath fill
1 setlinewidth
solid
0 0 0 edgecolor
newpath 2151.5001 220.1754 moveto
2148 210.1754 lineto
2144.5001 220.1755 lineto
closepath stroke
0 0 0 edgecolor
14 /Times-Roman set_font
2148 231.8 moveto 21 (Yes) alignedtext
grestore
% 21
gsave
1 setlinewidth
0 0 0 nodecolor
2635 192 88.2844 18 ellipse_path stroke
0 0 0 nodecolor
14 /Times-Roman set_font
2575 188.3 moveto 120 (V_1, value>0.314332) alignedtext
grestore
% 10->21
gsave
1 setlinewidth
0 0 0 edgecolor
newpath 2635 260.799 moveto
2635 249.1626 2635 233.5479 2635 220.2368 curveto
stroke
0 0 0 edgecolor
newpath 2638.5001 220.1754 moveto
2635 210.1754 lineto
2631.5001 220.1755 lineto
closepath fill
1 setlinewidth
solid
0 0 0 edgecolor
newpath 2638.5001 220.1754 moveto
2635 210.1754 lineto
2631.5001 220.1755 lineto
closepath stroke
0 0 0 edgecolor
14 /Times-Roman set_font
2635 231.8 moveto 17 (No) alignedtext
grestore
% 22
gsave
1 setlinewidth
0 0 0 nodecolor
2869 192 88.2844 18 ellipse_path stroke
0 0 0 nodecolor
14 /Times-Roman set_font
2809 188.3 moveto 120 (V_1, value>0.314332) alignedtext
grestore
% 10->22
gsave
1 setlinewidth
0 0 0 edgecolor
newpath 2675.226 263.388 moveto
2714.8299 249.002 2775.446 226.9833 2818.3206 211.4092 curveto
stroke
0 0 0 edgecolor
newpath 2819.5231 214.6962 moveto
2827.7272 207.9922 lineto
2817.1331 208.1168 lineto
closepath fill
1 setlinewidth
solid
0 0 0 edgecolor
newpath 2819.5231 214.6962 moveto
2827.7272 207.9922 lineto
2817.1331 208.1168 lineto
closepath stroke
0 0 0 edgecolor
14 /Times-Roman set_font
2767 231.8 moveto 21 (Yes) alignedtext
grestore
% 23
gsave
1 setlinewidth
0 0 0 nodecolor
3454 192 88.2844 18 ellipse_path stroke
0 0 0 nodecolor
14 /Times-Roman set_font
3394 188.3 moveto 120 (V_1, value>0.314332) alignedtext
grestore
% 11->23
gsave
1 setlinewidth
0 0 0 edgecolor
newpath 3700.2493 264.4375 moveto
3649.1903 249.6252 3567.3458 225.8819 3512.1723 209.8759 curveto
stroke
0 0 0 edgecolor
newpath 3513.1143 206.505 moveto
3502.5351 207.0802 lineto
3511.164 213.2278 lineto
closepath fill
1 setlinewidth
solid
0 0 0 edgecolor
newpath 3513.1143 206.505 moveto
3502.5351 207.0802 lineto
3511.164 213.2278 lineto
closepath stroke
0 0 0 edgecolor
14 /Times-Roman set_font
3619 231.8 moveto 17 (No) alignedtext
grestore
% 24
gsave
1 setlinewidth
0 0 0 nodecolor
3747 192 88.2844 18 ellipse_path stroke
0 0 0 nodecolor
14 /Times-Roman set_font
3687 188.3 moveto 120 (V_1, value>0.314332) alignedtext
grestore
% 11->24
gsave
1 setlinewidth
0 0 0 edgecolor
newpath 3747 260.799 moveto
3747 249.1626 3747 233.5479 3747 220.2368 curveto
stroke
0 0 0 edgecolor
newpath 3750.5001 220.1754 moveto
3747 210.1754 lineto
3743.5001 220.1755 lineto
closepath fill
1 setlinewidth
solid
0 0 0 edgecolor
newpath 3750.5001 220.1754 moveto
3747 210.1754 lineto
3743.5001 220.1755 lineto
closepath stroke
0 0 0 edgecolor
14 /Times-Roman set_font
3747 231.8 moveto 21 (Yes) alignedtext
grestore
% 25
gsave
1 setlinewidth
0 0 0 nodecolor
4176 192 88.2844 18 ellipse_path stroke
0 0 0 nodecolor
14 /Times-Roman set_font
4116 188.3 moveto 120 (V_1, value>0.314332) alignedtext
grestore
% 12->25
gsave
1 setlinewidth
0 0 0 edgecolor
newpath 4176 260.799 moveto
4176 249.1626 4176 233.5479 4176 220.2368 curveto
stroke
0 0 0 edgecolor
newpath 4179.5001 220.1754 moveto
4176 210.1754 lineto
4172.5001 220.1755 lineto
closepath fill
1 setlinewidth
solid
0 0 0 edgecolor
newpath 4179.5001 220.1754 moveto
4176 210.1754 lineto
4172.5001 220.1755 lineto
closepath stroke
0 0 0 edgecolor
14 /Times-Roman set_font
4176 231.8 moveto 17 (No) alignedtext
grestore
% 26
gsave
1 setlinewidth
0 0 0 nodecolor
4429 192 88.2844 18 ellipse_path stroke
0 0 0 nodecolor
14 /Times-Roman set_font
4369 188.3 moveto 120 (V_1, value>0.314332) alignedtext
grestore
% 12->26
gsave
1 setlinewidth
0 0 0 edgecolor
newpath 4218.3465 263.7729 moveto
4261.5536 249.2567 4328.7319 226.6869 4375.5708 210.9505 curveto
stroke
0 0 0 edgecolor
newpath 4376.8764 214.2042 moveto
4385.241 207.7016 lineto
4374.647 207.5687 lineto
closepath fill
1 setlinewidth
solid
0 0 0 edgecolor
newpath 4376.8764 214.2042 moveto
4385.241 207.7016 lineto
4374.647 207.5687 lineto
closepath stroke
0 0 0 edgecolor
14 /Times-Roman set_font
4318 231.8 moveto 21 (Yes) alignedtext
grestore
% 27
gsave
1 setlinewidth
0 0 0 nodecolor
5014 192 88.2844 18 ellipse_path stroke
0 0 0 nodecolor
14 /Times-Roman set_font
4954 188.3 moveto 120 (V_1, value>0.314332) alignedtext
grestore
% 13->27
gsave
1 setlinewidth
0 0 0 edgecolor
newpath 5053.0841 260.799 moveto
5046.1768 248.8169 5036.8379 232.6168 5029.0211 219.0569 curveto
stroke
0 0 0 edgecolor
newpath 5031.9277 217.091 moveto
5023.9011 210.1754 lineto
5025.8632 220.587 lineto
closepath fill
1 setlinewidth
solid
0 0 0 edgecolor
newpath 5031.9277 217.091 moveto
5023.9011 210.1754 lineto
5025.8632 220.587 lineto
closepath stroke
0 0 0 edgecolor
14 /Times-Roman set_font
5042 231.8 moveto 17 (No) alignedtext
grestore
% 28
gsave
1 setlinewidth
0 0 0 nodecolor
5209 192 88.2844 18 ellipse_path stroke
0 0 0 nodecolor
14 /Times-Roman set_font
5149 188.3 moveto 120 (V_1, value>0.314332) alignedtext
grestore
% 13->28
gsave
1 setlinewidth
0 0 0 edgecolor
newpath 5090.4615 262.0122 moveto
5113.5619 248.5633 5146.7918 229.2171 5172.194 214.4282 curveto
stroke
0 0 0 edgecolor
newpath 5174.2842 217.2613 moveto
5181.1653 209.2052 lineto
5170.7622 211.2118 lineto
closepath fill
1 setlinewidth
solid
0 0 0 edgecolor
newpath 5174.2842 217.2613 moveto
5181.1653 209.2052 lineto
5170.7622 211.2118 lineto
closepath stroke
0 0 0 edgecolor
14 /Times-Roman set_font
5145 231.8 moveto 21 (Yes) alignedtext
grestore
% 29
gsave
1 setlinewidth
0 0 0 nodecolor
5648 192 88.2844 18 ellipse_path stroke
0 0 0 nodecolor
14 /Times-Roman set_font
5588 188.3 moveto 120 (V_1, value>0.314332) alignedtext
grestore
% 14->29
gsave
1 setlinewidth
0 0 0 edgecolor
newpath 5648 260.799 moveto
5648 249.1626 5648 233.5479 5648 220.2368 curveto
stroke
0 0 0 edgecolor
newpath 5651.5001 220.1754 moveto
5648 210.1754 lineto
5644.5001 220.1755 lineto
closepath fill
1 setlinewidth
solid
0 0 0 edgecolor
newpath 5651.5001 220.1754 moveto
5648 210.1754 lineto
5644.5001 220.1755 lineto
closepath stroke
0 0 0 edgecolor
14 /Times-Roman set_font
5648 231.8 moveto 17 (No) alignedtext
grestore
% 30
gsave
1 setlinewidth
0 0 0 nodecolor
5989 192 88.2844 18 ellipse_path stroke
0 0 0 nodecolor
14 /Times-Roman set_font
5929 188.3 moveto 120 (V_1, value>0.314332) alignedtext
grestore
% 14->30
gsave
1 setlinewidth
0 0 0 edgecolor
newpath 5699.4204 265.1826 moveto
5759.945 250.0958 5860.4563 225.0417 5925.7107 208.7759 curveto
stroke
0 0 0 edgecolor
newpath 5926.6147 212.1578 moveto
5935.4712 206.343 lineto
5924.9216 205.3656 lineto
closepath fill
1 setlinewidth
solid
0 0 0 edgecolor
newpath 5926.6147 212.1578 moveto
5935.4712 206.343 lineto
5924.9216 205.3656 lineto
closepath stroke
0 0 0 edgecolor
14 /Times-Roman set_font
5839 231.8 moveto 21 (Yes) alignedtext
grestore
% 31
gsave
1 setlinewidth
0 0 0 nodecolor
138 105 88.2844 18 ellipse_path stroke
0 0 0 nodecolor
14 /Times-Roman set_font
78 101.3 moveto 120 (V_2, value>0.449219) alignedtext
grestore
% 15->31
gsave
1 setlinewidth
0 0 0 edgecolor
newpath 298.0506 175.4097 moveto
265.725 161.391 218.098 140.7364 183.2028 125.6033 curveto
stroke
0 0 0 edgecolor
newpath 184.2885 122.2592 moveto
173.7215 121.4915 lineto
181.5034 128.6813 lineto
closepath fill
1 setlinewidth
solid
0 0 0 edgecolor
newpath 184.2885 122.2592 moveto
173.7215 121.4915 lineto
181.5034 128.6813 lineto
closepath stroke
0 0 0 edgecolor
14 /Times-Roman set_font
248 144.8 moveto 17 (No) alignedtext
grestore
% 32
gsave
1 setlinewidth
0 0 0 nodecolor
334 105 88.2844 18 ellipse_path stroke
0 0 0 nodecolor
14 /Times-Roman set_font
274 101.3 moveto 120 (V_2, value>0.449219) alignedtext
grestore
% 15->32
gsave
1 setlinewidth
0 0 0 edgecolor
newpath 334 173.799 moveto
334 162.1626 334 146.5479 334 133.2368 curveto
stroke
0 0 0 edgecolor
newpath 337.5001 133.1754 moveto
334 123.1754 lineto
330.5001 133.1755 lineto
closepath fill
1 setlinewidth
solid
0 0 0 edgecolor
newpath 337.5001 133.1754 moveto
334 123.1754 lineto
330.5001 133.1755 lineto
closepath stroke
0 0 0 edgecolor
14 /Times-Roman set_font
334 144.8 moveto 21 (Yes) alignedtext
grestore
% 33
gsave
1 setlinewidth
0 0 0 nodecolor
529 105 88.2844 18 ellipse_path stroke
0 0 0 nodecolor
14 /Times-Roman set_font
469 101.3 moveto 120 (V_2, value>0.449219) alignedtext
grestore
% 16->33
gsave
1 setlinewidth
0 0 0 edgecolor
newpath 584.3678 174.2067 moveto
574.3214 161.8308 560.4935 144.7963 549.1701 130.8472 curveto
stroke
0 0 0 edgecolor
newpath 551.8599 128.6074 moveto
542.84 123.0493 lineto
546.4252 133.0192 lineto
closepath fill
1 setlinewidth
solid
0 0 0 edgecolor
newpath 551.8599 128.6074 moveto
542.84 123.0493 lineto
546.4252 133.0192 lineto
closepath stroke
0 0 0 edgecolor
14 /Times-Roman set_font
568 144.8 moveto 17 (No) alignedtext
grestore
% 34
gsave
1 setlinewidth
0 0 0 nodecolor
724 105 88.2844 18 ellipse_path stroke
0 0 0 nodecolor
14 /Times-Roman set_font
664 101.3 moveto 120 (V_2, value>0.449219) alignedtext
grestore
% 16->34
gsave
1 setlinewidth
0 0 0 edgecolor
newpath 622.2941 174.6111 moveto
641.904 161.3822 669.6827 142.6426 691.255 128.0899 curveto
stroke
0 0 0 edgecolor
newpath 693.4479 130.8326 moveto
699.7805 122.3385 lineto
689.5331 125.0295 lineto
closepath fill
1 setlinewidth
solid
0 0 0 edgecolor
newpath 693.4479 130.8326 moveto
699.7805 122.3385 lineto
689.5331 125.0295 lineto
closepath stroke
0 0 0 edgecolor
14 /Times-Roman set_font
669 144.8 moveto 21 (Yes) alignedtext
grestore
% 35
gsave
1 setlinewidth
0 0 0 nodecolor
919 105 88.2844 18 ellipse_path stroke
0 0 0 nodecolor
14 /Times-Roman set_font
859 101.3 moveto 120 (V_2, value>0.449219) alignedtext
grestore
% 17->35
gsave
1 setlinewidth
0 0 0 edgecolor
newpath 1078.234 175.4097 moveto
1046.0734 161.391 998.6894 140.7364 963.9722 125.6033 curveto
stroke
0 0 0 edgecolor
newpath 965.1048 122.2789 moveto
954.5393 121.4915 lineto
962.3077 128.6958 lineto
closepath fill
1 setlinewidth
solid
0 0 0 edgecolor
newpath 965.1048 122.2789 moveto
954.5393 121.4915 lineto
962.3077 128.6958 lineto
closepath stroke
0 0 0 edgecolor
14 /Times-Roman set_font
1029 144.8 moveto 17 (No) alignedtext
grestore
% 36
gsave
1 setlinewidth
0 0 0 nodecolor
1114 105 88.2844 18 ellipse_path stroke
0 0 0 nodecolor
14 /Times-Roman set_font
1054 101.3 moveto 120 (V_2, value>0.449219) alignedtext
grestore
% 17->36
gsave
1 setlinewidth
0 0 0 edgecolor
newpath 1114 173.799 moveto
1114 162.1626 1114 146.5479 1114 133.2368 curveto
stroke
0 0 0 edgecolor
newpath 1117.5001 133.1754 moveto
1114 123.1754 lineto
1110.5001 133.1755 lineto
closepath fill
1 setlinewidth
solid
0 0 0 edgecolor
newpath 1117.5001 133.1754 moveto
1114 123.1754 lineto
1110.5001 133.1755 lineto
closepath stroke
0 0 0 edgecolor
14 /Times-Roman set_font
1114 144.8 moveto 21 (Yes) alignedtext
grestore
% 37
gsave
1 setlinewidth
0 0 0 nodecolor
1309 105 88.2844 18 ellipse_path stroke
0 0 0 nodecolor
14 /Times-Roman set_font
1249 101.3 moveto 120 (V_2, value>0.449219) alignedtext
grestore
% 18->37
gsave
1 setlinewidth
0 0 0 edgecolor
newpath 1309 173.799 moveto
1309 162.1626 1309 146.5479 1309 133.2368 curveto
stroke
0 0 0 edgecolor
newpath 1312.5001 133.1754 moveto
1309 123.1754 lineto
1305.5001 133.1755 lineto
closepath fill
1 setlinewidth
solid
0 0 0 edgecolor
newpath 1312.5001 133.1754 moveto
1309 123.1754 lineto
1305.5001 133.1755 lineto
closepath stroke
0 0 0 edgecolor
14 /Times-Roman set_font
1309 144.8 moveto 17 (No) alignedtext
grestore
% 38
gsave
1 setlinewidth
0 0 0 nodecolor
1504 105 88.2844 18 ellipse_path stroke
0 0 0 nodecolor
14 /Times-Roman set_font
1444 101.3 moveto 120 (V_2, value>0.449219) alignedtext
grestore
% 18->38
gsave
1 setlinewidth
0 0 0 edgecolor
newpath 1344.766 175.4097 moveto
1376.9266 161.391 1424.3106 140.7364 1459.0278 125.6033 curveto
stroke
0 0 0 edgecolor
newpath 1460.6923 128.6958 moveto
1468.4607 121.4915 lineto
1457.8952 122.2789 lineto
closepath fill
1 setlinewidth
solid
0 0 0 edgecolor
newpath 1460.6923 128.6958 moveto
1468.4607 121.4915 lineto
1457.8952 122.2789 lineto
closepath stroke
0 0 0 edgecolor
14 /Times-Roman set_font
1419 144.8 moveto 21 (Yes) alignedtext
grestore
% 39
gsave
1 setlinewidth
0 0 0 nodecolor
1699 105 88.2844 18 ellipse_path stroke
0 0 0 nodecolor
14 /Times-Roman set_font
1639 101.3 moveto 120 (V_2, value>0.449219) alignedtext
grestore
% 19->39
gsave
1 setlinewidth
0 0 0 edgecolor
newpath 1858.234 175.4097 moveto
1826.0734 161.391 1778.6894 140.7364 1743.9722 125.6033 curveto
stroke
0 0 0 edgecolor
newpath 1745.1048 122.2789 moveto
1734.5393 121.4915 lineto
1742.3077 128.6958 lineto
closepath fill
1 setlinewidth
solid
0 0 0 edgecolor
newpath 1745.1048 122.2789 moveto
1734.5393 121.4915 lineto
1742.3077 128.6958 lineto
closepath stroke
0 0 0 edgecolor
14 /Times-Roman set_font
1809 144.8 moveto 17 (No) alignedtext
grestore
% 40
gsave
1 setlinewidth
0 0 0 nodecolor
1894 105 88.2844 18 ellipse_path stroke
0 0 0 nodecolor
14 /Times-Roman set_font
1834 101.3 moveto 120 (V_2, value>0.449219) alignedtext
grestore
% 19->40
gsave
1 setlinewidth
0 0 0 edgecolor
newpath 1894 173.799 moveto
1894 162.1626 1894 146.5479 1894 133.2368 curveto
stroke
0 0 0 edgecolor
newpath 1897.5001 133.1754 moveto
1894 123.1754 lineto
1890.5001 133.1755 lineto
closepath fill
1 setlinewidth
solid
0 0 0 edgecolor
newpath 1897.5001 133.1754 moveto
1894 123.1754 lineto
1890.5001 133.1755 lineto
closepath stroke
0 0 0 edgecolor
14 /Times-Roman set_font
1894 144.8 moveto 21 (Yes) alignedtext
grestore
% 41
gsave
1 setlinewidth
0 0 0 nodecolor
2089 105 88.2844 18 ellipse_path stroke
0 0 0 nodecolor
14 /Times-Roman set_font
2029 101.3 moveto 120 (V_2, value>0.449219) alignedtext
grestore
% 20->41
gsave
1 setlinewidth
0 0 0 edgecolor
newpath 2136.0605 173.799 moveto
2127.6083 161.6221 2116.1323 145.0889 2106.629 131.3977 curveto
stroke
0 0 0 edgecolor
newpath 2109.2979 129.1046 moveto
2100.7204 122.8854 lineto
2103.5474 133.0961 lineto
closepath fill
1 setlinewidth
solid
0 0 0 edgecolor
newpath 2109.2979 129.1046 moveto
2100.7204 122.8854 lineto
2103.5474 133.0961 lineto
closepath stroke
0 0 0 edgecolor
14 /Times-Roman set_font
2123 144.8 moveto 17 (No) alignedtext
grestore
% 42
gsave
1 setlinewidth
0 0 0 nodecolor
2284 105 88.2844 18 ellipse_path stroke
0 0 0 nodecolor
14 /Times-Roman set_font
2224 101.3 moveto 120 (V_2, value>0.449219) alignedtext
grestore
% 20->42
gsave
1 setlinewidth
0 0 0 edgecolor
newpath 2174.2222 174.6111 moveto
2195.5766 161.2646 2225.9056 142.309 2249.2755 127.7028 curveto
stroke
0 0 0 edgecolor
newpath 2251.2333 130.6066 moveto
2257.8583 122.3385 lineto
2247.5233 124.6706 lineto
closepath fill
1 setlinewidth
solid
0 0 0 edgecolor
newpath 2251.2333 130.6066 moveto
2257.8583 122.3385 lineto
2247.5233 124.6706 lineto
closepath stroke
0 0 0 edgecolor
14 /Times-Roman set_font
2225 144.8 moveto 21 (Yes) alignedtext
grestore
% 43
gsave
1 setlinewidth
0 0 0 nodecolor
2479 105 88.2844 18 ellipse_path stroke
0 0 0 nodecolor
14 /Times-Roman set_font
2419 101.3 moveto 120 (V_2, value>0.449219) alignedtext
grestore
% 21->43
gsave
1 setlinewidth
0 0 0 edgecolor
newpath 2605.6576 175.0122 moveto
2580.6792 161.4021 2544.6164 141.7525 2517.3547 126.8984 curveto
stroke
0 0 0 edgecolor
newpath 2518.9314 123.7717 moveto
2508.4756 122.0604 lineto
2515.5821 129.9185 lineto
closepath fill
1 setlinewidth
solid
0 0 0 edgecolor
newpath 2518.9314 123.7717 moveto
2508.4756 122.0604 lineto
2515.5821 129.9185 lineto
closepath stroke
0 0 0 edgecolor
14 /Times-Roman set_font
2567 144.8 moveto 17 (No) alignedtext
grestore
% 44
gsave
1 setlinewidth
0 0 0 nodecolor
2674 105 88.2844 18 ellipse_path stroke
0 0 0 nodecolor
14 /Times-Roman set_font
2614 101.3 moveto 120 (V_2, value>0.449219) alignedtext
grestore
% 21->44
gsave
1 setlinewidth
0 0 0 edgecolor
newpath 2642.8922 173.799 moveto
2648.337 161.9322 2655.6801 145.9279 2661.8647 132.4488 curveto
stroke
0 0 0 edgecolor
newpath 2665.1304 133.724 moveto
2666.1195 123.1754 lineto
2658.7681 130.8048 lineto
closepath fill
1 setlinewidth
solid
0 0 0 edgecolor
newpath 2665.1304 133.724 moveto
2666.1195 123.1754 lineto
2658.7681 130.8048 lineto
closepath stroke
0 0 0 edgecolor
14 /Times-Roman set_font
2657 144.8 moveto 21 (Yes) alignedtext
grestore
% 45
gsave
1 setlinewidth
0 0 0 nodecolor
2869 105 88.2844 18 ellipse_path stroke
0 0 0 nodecolor
14 /Times-Roman set_font
2809 101.3 moveto 120 (V_2, value>0.449219) alignedtext
grestore
% 22->45
gsave
1 setlinewidth
0 0 0 edgecolor
newpath 2869 173.799 moveto
2869 162.1626 2869 146.5479 2869 133.2368 curveto
stroke
0 0 0 edgecolor
newpath 2872.5001 133.1754 moveto
2869 123.1754 lineto
2865.5001 133.1755 lineto
closepath fill
1 setlinewidth
solid
0 0 0 edgecolor
newpath 2872.5001 133.1754 moveto
2869 123.1754 lineto
2865.5001 133.1755 lineto
closepath stroke
0 0 0 edgecolor
14 /Times-Roman set_font
2869 144.8 moveto 17 (No) alignedtext
grestore
% 46
gsave
1 setlinewidth
0 0 0 nodecolor
3064 105 88.2844 18 ellipse_path stroke
0 0 0 nodecolor
14 /Times-Roman set_font
3004 101.3 moveto 120 (V_2, value>0.449219) alignedtext
grestore
% 22->46
gsave
1 setlinewidth
0 0 0 edgecolor
newpath 2904.766 175.4097 moveto
2936.9266 161.391 2984.3106 140.7364 3019.0278 125.6033 curveto
stroke
0 0 0 edgecolor
newpath 3020.6923 128.6958 moveto
3028.4607 121.4915 lineto
3017.8952 122.2789 lineto
closepath fill
1 setlinewidth
solid
0 0 0 edgecolor
newpath 3020.6923 128.6958 moveto
3028.4607 121.4915 lineto
3017.8952 122.2789 lineto
closepath stroke
0 0 0 edgecolor
14 /Times-Roman set_font
2979 144.8 moveto 21 (Yes) alignedtext
grestore
% 47
gsave
1 setlinewidth
0 0 0 nodecolor
3259 105 88.2844 18 ellipse_path stroke
0 0 0 nodecolor
14 /Times-Roman set_font
3199 101.3 moveto 120 (V_2, value>0.449219) alignedtext
grestore
% 23->47
gsave
1 setlinewidth
0 0 0 edgecolor
newpath 3418.234 175.4097 moveto
3386.0734 161.391 3338.6894 140.7364 3303.9722 125.6033 curveto
stroke
0 0 0 edgecolor
newpath 3305.1048 122.2789 moveto
3294.5393 121.4915 lineto
3302.3077 128.6958 lineto
closepath fill
1 setlinewidth
solid
0 0 0 edgecolor
newpath 3305.1048 122.2789 moveto
3294.5393 121.4915 lineto
3302.3077 128.6958 lineto
closepath stroke
0 0 0 edgecolor
14 /Times-Roman set_font
3369 144.8 moveto 17 (No) alignedtext
grestore
% 48
gsave
1 setlinewidth
0 0 0 nodecolor
3454 105 88.2844 18 ellipse_path stroke
0 0 0 nodecolor
14 /Times-Roman set_font
3394 101.3 moveto 120 (V_2, value>0.449219) alignedtext
grestore
% 23->48
gsave
1 setlinewidth
0 0 0 edgecolor
newpath 3454 173.799 moveto
3454 162.1626 3454 146.5479 3454 133.2368 curveto
stroke
0 0 0 edgecolor
newpath 3457.5001 133.1754 moveto
3454 123.1754 lineto
3450.5001 133.1755 lineto
closepath fill
1 setlinewidth
solid
0 0 0 edgecolor
newpath 3457.5001 133.1754 moveto
3454 123.1754 lineto
3450.5001 133.1755 lineto
closepath stroke
0 0 0 edgecolor
14 /Times-Roman set_font
3454 144.8 moveto 21 (Yes) alignedtext
grestore
% 49
gsave
1 setlinewidth
0 0 0 nodecolor
3649 105 88.2844 18 ellipse_path stroke
0 0 0 nodecolor
14 /Times-Roman set_font
3589 101.3 moveto 120 (V_2, value>0.449219) alignedtext
grestore
% 24->49
gsave
1 setlinewidth
0 0 0 edgecolor
newpath 3727.6384 174.2067 moveto
3712.8737 161.4006 3692.3582 143.6066 3675.9838 129.4043 curveto
stroke
0 0 0 edgecolor
newpath 3678.1691 126.6666 moveto
3668.3214 122.7584 lineto
3673.5825 131.9547 lineto
closepath fill
1 setlinewidth
solid
0 0 0 edgecolor
newpath 3678.1691 126.6666 moveto
3668.3214 122.7584 lineto
3673.5825 131.9547 lineto
closepath stroke
0 0 0 edgecolor
14 /Times-Roman set_font
3704 144.8 moveto 17 (No) alignedtext
grestore
% 50
gsave
1 setlinewidth
0 0 0 nodecolor
3844 105 88.2844 18 ellipse_path stroke
0 0 0 nodecolor
14 /Times-Roman set_font
3784 101.3 moveto 120 (V_2, value>0.449219) alignedtext
grestore
% 24->50
gsave
1 setlinewidth
0 0 0 edgecolor
newpath 3766.1641 174.2067 moveto
3780.7781 161.4006 3801.0843 143.6066 3817.2916 129.4043 curveto
stroke
0 0 0 edgecolor
newpath 3819.6614 131.9813 moveto
3824.8757 122.7584 lineto
3815.048 126.7166 lineto
closepath fill
1 setlinewidth
solid
0 0 0 edgecolor
newpath 3819.6614 131.9813 moveto
3824.8757 122.7584 lineto
3815.048 126.7166 lineto
closepath stroke
0 0 0 edgecolor
14 /Times-Roman set_font
3802 144.8 moveto 21 (Yes) alignedtext
grestore
% 51
gsave
1 setlinewidth
0 0 0 nodecolor
4039 105 88.2844 18 ellipse_path stroke
0 0 0 nodecolor
14 /Times-Roman set_font
3979 101.3 moveto 120 (V_2, value>0.449219) alignedtext
grestore
% 25->51
gsave
1 setlinewidth
0 0 0 edgecolor
newpath 4149.585 174.6111 moveto
4128.0736 161.2646 4097.5216 142.309 4073.9798 127.7028 curveto
stroke
0 0 0 edgecolor
newpath 4075.6765 124.6366 moveto
4065.3339 122.3385 lineto
4071.986 130.5848 lineto
closepath fill
1 setlinewidth
solid
0 0 0 edgecolor
newpath 4075.6765 124.6366 moveto
4065.3339 122.3385 lineto
4071.986 130.5848 lineto
closepath stroke
0 0 0 edgecolor
14 /Times-Roman set_font
4116 144.8 moveto 17 (No) alignedtext
grestore
% 52
gsave
1 setlinewidth
0 0 0 nodecolor
4234 105 88.2844 18 ellipse_path stroke
0 0 0 nodecolor
14 /Times-Roman set_font
4174 101.3 moveto 120 (V_2, value>0.449219) alignedtext
grestore
% 25->52
gsave
1 setlinewidth
0 0 0 edgecolor
newpath 4187.7372 173.799 moveto
4196.0461 161.6221 4207.3276 145.0889 4216.6698 131.3977 curveto
stroke
0 0 0 edgecolor
newpath 4219.7329 133.1183 moveto
4222.4782 122.8854 lineto
4213.9507 129.1728 lineto
closepath fill
1 setlinewidth
solid
0 0 0 edgecolor
newpath 4219.7329 133.1183 moveto
4222.4782 122.8854 lineto
4213.9507 129.1728 lineto
closepath stroke
0 0 0 edgecolor
14 /Times-Roman set_font
4209 144.8 moveto 21 (Yes) alignedtext
grestore
% 53
gsave
1 setlinewidth
0 0 0 nodecolor
4429 105 88.2844 18 ellipse_path stroke
0 0 0 nodecolor
14 /Times-Roman set_font
4369 101.3 moveto 120 (V_2, value>0.449219) alignedtext
grestore
% 26->53
gsave
1 setlinewidth
0 0 0 edgecolor
newpath 4429 173.799 moveto
4429 162.1626 4429 146.5479 4429 133.2368 curveto
stroke
0 0 0 edgecolor
newpath 4432.5001 133.1754 moveto
4429 123.1754 lineto
4425.5001 133.1755 lineto
closepath fill
1 setlinewidth
solid
0 0 0 edgecolor
newpath 4432.5001 133.1754 moveto
4429 123.1754 lineto
4425.5001 133.1755 lineto
closepath stroke
0 0 0 edgecolor
14 /Times-Roman set_font
4429 144.8 moveto 17 (No) alignedtext
grestore
% 54
gsave
1 setlinewidth
0 0 0 nodecolor
4624 105 88.2844 18 ellipse_path stroke
0 0 0 nodecolor
14 /Times-Roman set_font
4564 101.3 moveto 120 (V_2, value>0.449219) alignedtext
grestore
% 26->54
gsave
1 setlinewidth
0 0 0 edgecolor
newpath 4464.766 175.4097 moveto
4496.9266 161.391 4544.3106 140.7364 4579.0278 125.6033 curveto
stroke
0 0 0 edgecolor
newpath 4580.6923 128.6958 moveto
4588.4607 121.4915 lineto
4577.8952 122.2789 lineto
closepath fill
1 setlinewidth
solid
0 0 0 edgecolor
newpath 4580.6923 128.6958 moveto
4588.4607 121.4915 lineto
4577.8952 122.2789 lineto
closepath stroke
0 0 0 edgecolor
14 /Times-Roman set_font
4539 144.8 moveto 21 (Yes) alignedtext
grestore
% 55
gsave
1 setlinewidth
0 0 0 nodecolor
4819 105 88.2844 18 ellipse_path stroke
0 0 0 nodecolor
14 /Times-Roman set_font
4759 101.3 moveto 120 (V_2, value>0.449219) alignedtext
grestore
% 27->55
gsave
1 setlinewidth
0 0 0 edgecolor
newpath 4978.234 175.4097 moveto
4946.0734 161.391 4898.6894 140.7364 4863.9722 125.6033 curveto
stroke
0 0 0 edgecolor
newpath 4865.1048 122.2789 moveto
4854.5393 121.4915 lineto
4862.3077 128.6958 lineto
closepath fill
1 setlinewidth
solid
0 0 0 edgecolor
newpath 4865.1048 122.2789 moveto
4854.5393 121.4915 lineto
4862.3077 128.6958 lineto
closepath stroke
0 0 0 edgecolor
14 /Times-Roman set_font
4929 144.8 moveto 17 (No) alignedtext
grestore
% 56
gsave
1 setlinewidth
0 0 0 nodecolor
5014 105 88.2844 18 ellipse_path stroke
0 0 0 nodecolor
14 /Times-Roman set_font
4954 101.3 moveto 120 (V_2, value>0.449219) alignedtext
grestore
% 27->56
gsave
1 setlinewidth
0 0 0 edgecolor
newpath 5014 173.799 moveto
5014 162.1626 5014 146.5479 5014 133.2368 curveto
stroke
0 0 0 edgecolor
newpath 5017.5001 133.1754 moveto
5014 123.1754 lineto
5010.5001 133.1755 lineto
closepath fill
1 setlinewidth
solid
0 0 0 edgecolor
newpath 5017.5001 133.1754 moveto
5014 123.1754 lineto
5010.5001 133.1755 lineto
closepath stroke
0 0 0 edgecolor
14 /Times-Roman set_font
5014 144.8 moveto 21 (Yes) alignedtext
grestore
% 57
gsave
1 setlinewidth
0 0 0 nodecolor
5209 105 88.2844 18 ellipse_path stroke
0 0 0 nodecolor
14 /Times-Roman set_font
5149 101.3 moveto 120 (V_2, value>0.449219) alignedtext
grestore
% 28->57
gsave
1 setlinewidth
0 0 0 edgecolor
newpath 5209 173.799 moveto
5209 162.1626 5209 146.5479 5209 133.2368 curveto
stroke
0 0 0 edgecolor
newpath 5212.5001 133.1754 moveto
5209 123.1754 lineto
5205.5001 133.1755 lineto
closepath fill
1 setlinewidth
solid
0 0 0 edgecolor
newpath 5212.5001 133.1754 moveto
5209 123.1754 lineto
5205.5001 133.1755 lineto
closepath stroke
0 0 0 edgecolor
14 /Times-Roman set_font
5209 144.8 moveto 17 (No) alignedtext
grestore
% 58
gsave
1 setlinewidth
0 0 0 nodecolor
5404 105 88.2844 18 ellipse_path stroke
0 0 0 nodecolor
14 /Times-Roman set_font
5344 101.3 moveto 120 (V_2, value>0.449219) alignedtext
grestore
% 28->58
gsave
1 setlinewidth
0 0 0 edgecolor
newpath 5244.766 175.4097 moveto
5276.9266 161.391 5324.3106 140.7364 5359.0278 125.6033 curveto
stroke
0 0 0 edgecolor
newpath 5360.6923 128.6958 moveto
5368.4607 121.4915 lineto
5357.8952 122.2789 lineto
closepath fill
1 setlinewidth
solid
0 0 0 edgecolor
newpath 5360.6923 128.6958 moveto
5368.4607 121.4915 lineto
5357.8952 122.2789 lineto
closepath stroke
0 0 0 edgecolor
14 /Times-Roman set_font
5319 144.8 moveto 21 (Yes) alignedtext
grestore
% 59
gsave
1 setlinewidth
0 0 0 nodecolor
5599 105 88.2844 18 ellipse_path stroke
0 0 0 nodecolor
14 /Times-Roman set_font
5539 101.3 moveto 120 (V_2, value>0.449219) alignedtext
grestore
% 29->59
gsave
1 setlinewidth
0 0 0 edgecolor
newpath 5638.0841 173.799 moveto
5631.1768 161.8169 5621.8379 145.6168 5614.0211 132.0569 curveto
stroke
0 0 0 edgecolor
newpath 5616.9277 130.091 moveto
5608.9011 123.1754 lineto
5610.8632 133.587 lineto
closepath fill
1 setlinewidth
solid
0 0 0 edgecolor
newpath 5616.9277 130.091 moveto
5608.9011 123.1754 lineto
5610.8632 133.587 lineto
closepath stroke
0 0 0 edgecolor
14 /Times-Roman set_font
5627 144.8 moveto 17 (No) alignedtext
grestore
% 60
gsave
1 setlinewidth
0 0 0 nodecolor
5794 105 88.2844 18 ellipse_path stroke
0 0 0 nodecolor
14 /Times-Roman set_font
5734 101.3 moveto 120 (V_2, value>0.449219) alignedtext
grestore
% 29->60
gsave
1 setlinewidth
0 0 0 edgecolor
newpath 5675.8051 174.8121 moveto
5698.9426 161.3416 5732.0666 142.0571 5757.365 127.3286 curveto
stroke
0 0 0 edgecolor
newpath 5759.4173 130.1838 moveto
5766.2984 122.1277 lineto
5755.8953 124.1343 lineto
closepath fill
1 setlinewidth
solid
0 0 0 edgecolor
newpath 5759.4173 130.1838 moveto
5766.2984 122.1277 lineto
5755.8953 124.1343 lineto
closepath stroke
0 0 0 edgecolor
14 /Times-Roman set_font
5730 144.8 moveto 21 (Yes) alignedtext
grestore
% 61
gsave
1 setlinewidth
0 0 0 nodecolor
5989 105 88.2844 18 ellipse_path stroke
0 0 0 nodecolor
14 /Times-Roman set_font
5929 101.3 moveto 120 (V_2, value>0.449219) alignedtext
grestore
% 30->61
gsave
1 setlinewidth
0 0 0 edgecolor
newpath 5989 173.799 moveto
5989 162.1626 5989 146.5479 5989 133.2368 curveto
stroke
0 0 0 edgecolor
newpath 5992.5001 133.1754 moveto
5989 123.1754 lineto
5985.5001 133.1755 lineto
closepath fill
1 setlinewidth
solid
0 0 0 edgecolor
newpath 5992.5001 133.1754 moveto
5989 123.1754 lineto
5985.5001 133.1755 lineto
closepath stroke
0 0 0 edgecolor
14 /Times-Roman set_font
5989 144.8 moveto 17 (No) alignedtext
grestore
% 62
gsave
1 setlinewidth
0 0 0 nodecolor
6184 105 88.2844 18 ellipse_path stroke
0 0 0 nodecolor
14 /Times-Roman set_font
6124 101.3 moveto 120 (V_2, value>0.449219) alignedtext
grestore
% 30->62
gsave
1 setlinewidth
0 0 0 edgecolor
newpath 6024.766 175.4097 moveto
6056.9266 161.391 6104.3106 140.7364 6139.0278 125.6033 curveto
stroke
0 0 0 edgecolor
newpath 6140.6923 128.6958 moveto
6148.4607 121.4915 lineto
6137.8952 122.2789 lineto
closepath fill
1 setlinewidth
solid
0 0 0 edgecolor
newpath 6140.6923 128.6958 moveto
6148.4607 121.4915 lineto
6137.8952 122.2789 lineto
closepath stroke
0 0 0 edgecolor
14 /Times-Roman set_font
6099 144.8 moveto 21 (Yes) alignedtext
grestore
% 63
gsave
1 setlinewidth
0 1 1 nodecolor
newpath 80 36 moveto
0 36 lineto
0 0 lineto
80 0 lineto
closepath stroke
0 0 0 nodecolor
14 /Times-Roman set_font
8 14.3 moveto 64 (val = 0.000) alignedtext
grestore
% 31->63
gsave
1 setlinewidth
0 0 0 edgecolor
newpath 118.6384 87.2067 moveto
103.9695 74.4838 83.6243 56.8374 67.3033 42.6814 curveto
stroke
0 0 0 edgecolor
newpath 69.5045 39.9576 moveto
59.6569 36.0493 lineto
64.9179 45.2456 lineto
closepath fill
1 setlinewidth
solid
0 0 0 edgecolor
newpath 69.5045 39.9576 moveto
59.6569 36.0493 lineto
64.9179 45.2456 lineto
closepath stroke
0 0 0 edgecolor
14 /Times-Roman set_font
95 57.8 moveto 17 (No) alignedtext
grestore
% 64
gsave
1 setlinewidth
0 1 1 nodecolor
newpath 178 36 moveto
98 36 lineto
98 0 lineto
178 0 lineto
closepath stroke
0 0 0 nodecolor
14 /Times-Roman set_font
106 14.3 moveto 64 (val = 0.000) alignedtext
grestore
% 31->64
gsave
1 setlinewidth
0 0 0 edgecolor
newpath 138 86.799 moveto
138 75.1626 138 59.5479 138 46.2368 curveto
stroke
0 0 0 edgecolor
newpath 141.5001 46.1754 moveto
138 36.1754 lineto
134.5001 46.1755 lineto
closepath fill
1 setlinewidth
solid
0 0 0 edgecolor
newpath 141.5001 46.1754 moveto
138 36.1754 lineto
134.5001 46.1755 lineto
closepath stroke
0 0 0 edgecolor
14 /Times-Roman set_font
138 57.8 moveto 21 (Yes) alignedtext
grestore
% 65
gsave
1 setlinewidth
0 1 1 nodecolor
newpath 280 36 moveto
196 36 lineto
196 0 lineto
280 0 lineto
closepath stroke
0 0 0 nodecolor
14 /Times-Roman set_font
204 14.3 moveto 68 (val = -0.003) alignedtext
grestore
% 32->65
gsave
1 setlinewidth
0 0 0 edgecolor
newpath 315.0335 87.2067 moveto
300.664 74.4838 280.7341 56.8374 264.7461 42.6814 curveto
stroke
0 0 0 edgecolor
newpath 267.0629 40.058 moveto
257.2557 36.0493 lineto
262.4225 45.2989 lineto
closepath fill
1 setlinewidth
solid
0 0 0 edgecolor
newpath 267.0629 40.058 moveto
257.2557 36.0493 lineto
262.4225 45.2989 lineto
closepath stroke
0 0 0 edgecolor
14 /Times-Roman set_font
292 57.8 moveto 17 (No) alignedtext
grestore
% 66
gsave
1 setlinewidth
0 1 1 nodecolor
newpath 382 36 moveto
298 36 lineto
298 0 lineto
382 0 lineto
closepath stroke
0 0 0 nodecolor
14 /Times-Roman set_font
306 14.3 moveto 68 (val = -0.061) alignedtext
grestore
% 32->66
gsave
1 setlinewidth
0 0 0 edgecolor
newpath 335.2142 86.799 moveto
336.0356 75.1626 337.1378 59.5479 338.0774 46.2368 curveto
stroke
0 0 0 edgecolor
newpath 341.5747 46.3971 moveto
338.7876 36.1754 lineto
334.5921 45.9041 lineto
closepath fill
1 setlinewidth
solid
0 0 0 edgecolor
newpath 341.5747 46.3971 moveto
338.7876 36.1754 lineto
334.5921 45.9041 lineto
closepath stroke
0 0 0 edgecolor
14 /Times-Roman set_font
338 57.8 moveto 21 (Yes) alignedtext
grestore
% 67
gsave
1 setlinewidth
0 1 1 nodecolor
newpath 480 36 moveto
400 36 lineto
400 0 lineto
480 0 lineto
closepath stroke
0 0 0 nodecolor
14 /Times-Roman set_font
408 14.3 moveto 64 (val = 0.000) alignedtext
grestore
% 33->67
gsave
1 setlinewidth
0 0 0 edgecolor
newpath 511.4165 87.2067 moveto
498.2159 74.5994 479.9535 57.1579 465.201 43.0683 curveto
stroke
0 0 0 edgecolor
newpath 467.5007 40.4249 moveto
457.8516 36.0493 lineto
462.666 45.4871 lineto
closepath fill
1 setlinewidth
solid
0 0 0 edgecolor
newpath 467.5007 40.4249 moveto
457.8516 36.0493 lineto
462.666 45.4871 lineto
closepath stroke
0 0 0 edgecolor
14 /Times-Roman set_font
490 57.8 moveto 17 (No) alignedtext
grestore
% 68
gsave
1 setlinewidth
0 1 1 nodecolor
newpath 578 36 moveto
498 36 lineto
498 0 lineto
578 0 lineto
closepath stroke
0 0 0 nodecolor
14 /Times-Roman set_font
506 14.3 moveto 64 (val = 0.000) alignedtext
grestore
% 33->68
gsave
1 setlinewidth
0 0 0 edgecolor
newpath 530.8213 86.799 moveto
532.0534 75.1626 533.7067 59.5479 535.1161 46.2368 curveto
stroke
0 0 0 edgecolor
newpath 538.6089 46.4884 moveto
536.1814 36.1754 lineto
531.6479 45.7513 lineto
closepath fill
1 setlinewidth
solid
0 0 0 edgecolor
newpath 538.6089 46.4884 moveto
536.1814 36.1754 lineto
531.6479 45.7513 lineto
closepath stroke
0 0 0 edgecolor
14 /Times-Roman set_font
535 57.8 moveto 21 (Yes) alignedtext
grestore
% 69
gsave
1 setlinewidth
0 1 1 nodecolor
newpath 676 36 moveto
596 36 lineto
596 0 lineto
676 0 lineto
closepath stroke
0 0 0 nodecolor
14 /Times-Roman set_font
604 14.3 moveto 64 (val = 0.000) alignedtext
grestore
% 34->69
gsave
1 setlinewidth
0 0 0 edgecolor
newpath 706.614 87.2067 moveto
693.5618 74.5994 675.5046 57.1579 660.9178 43.0683 curveto
stroke
0 0 0 edgecolor
newpath 663.2753 40.4793 moveto
653.6511 36.0493 lineto
658.4121 45.5142 lineto
closepath fill
1 setlinewidth
solid
0 0 0 edgecolor
newpath 663.2753 40.4793 moveto
653.6511 36.0493 lineto
658.4121 45.5142 lineto
closepath stroke
0 0 0 edgecolor
14 /Times-Roman set_font
686 57.8 moveto 17 (No) alignedtext
grestore
% 70
gsave
1 setlinewidth
0 1 1 nodecolor
newpath 774 36 moveto
694 36 lineto
694 0 lineto
774 0 lineto
closepath stroke
0 0 0 nodecolor
14 /Times-Roman set_font
702 14.3 moveto 64 (val = 0.000) alignedtext
grestore
% 34->70
gsave
1 setlinewidth
0 0 0 edgecolor
newpath 726.0236 86.799 moveto
727.3926 75.1626 729.2297 59.5479 730.7957 46.2368 curveto
stroke
0 0 0 edgecolor
newpath 734.2869 46.5159 moveto
731.9794 36.1754 lineto
727.3348 45.698 lineto
closepath fill
1 setlinewidth
solid
0 0 0 edgecolor
newpath 734.2869 46.5159 moveto
731.9794 36.1754 lineto
727.3348 45.698 lineto
closepath stroke
0 0 0 edgecolor
14 /Times-Roman set_font
730 57.8 moveto 21 (Yes) alignedtext
grestore
% 71
gsave
1 setlinewidth
0 1 1 nodecolor
newpath 872 36 moveto
792 36 lineto
792 0 lineto
872 0 lineto
closepath stroke
0 0 0 nodecolor
14 /Times-Roman set_font
800 14.3 moveto 64 (val = 0.000) alignedtext
grestore
% 35->71
gsave
1 setlinewidth
0 0 0 edgecolor
newpath 901.8116 87.2067 moveto
888.9077 74.5994 871.0557 57.1579 856.6346 43.0683 curveto
stroke
0 0 0 edgecolor
newpath 859.0493 40.5342 moveto
849.4505 36.0493 lineto
854.1574 45.5412 lineto
closepath fill
1 setlinewidth
solid
0 0 0 edgecolor
newpath 859.0493 40.5342 moveto
849.4505 36.0493 lineto
854.1574 45.5412 lineto
closepath stroke
0 0 0 edgecolor
14 /Times-Roman set_font
881 57.8 moveto 17 (No) alignedtext
grestore
% 72
gsave
1 setlinewidth
0 1 1 nodecolor
newpath 970 36 moveto
890 36 lineto
890 0 lineto
970 0 lineto
closepath stroke
0 0 0 nodecolor
14 /Times-Roman set_font
898 14.3 moveto 64 (val = 0.000) alignedtext
grestore
% 35->72
gsave
1 setlinewidth
0 0 0 edgecolor
newpath 921.226 86.799 moveto
922.7319 75.1626 924.7526 59.5479 926.4752 46.2368 curveto
stroke
0 0 0 edgecolor
newpath 929.9649 46.542 moveto
927.7773 36.1754 lineto
923.0227 45.6435 lineto
closepath fill
1 setlinewidth
solid
0 0 0 edgecolor
newpath 929.9649 46.542 moveto
927.7773 36.1754 lineto
923.0227 45.6435 lineto
closepath stroke
0 0 0 edgecolor
14 /Times-Roman set_font
926 57.8 moveto 21 (Yes) alignedtext
grestore
% 73
gsave
1 setlinewidth
0 1 1 nodecolor
newpath 1068 36 moveto
988 36 lineto
988 0 lineto
1068 0 lineto
closepath stroke
0 0 0 nodecolor
14 /Times-Roman set_font
996 14.3 moveto 64 (val = 0.000) alignedtext
grestore
% 36->73
gsave
1 setlinewidth
0 0 0 edgecolor
newpath 1097.0092 87.2067 moveto
1084.3706 74.7151 1066.9302 57.4775 1052.7447 43.457 curveto
stroke
0 0 0 edgecolor
newpath 1054.8226 40.5896 moveto
1045.2499 36.0493 lineto
1049.9019 45.5683 lineto
closepath fill
1 setlinewidth
solid
0 0 0 edgecolor
newpath 1054.8226 40.5896 moveto
1045.2499 36.0493 lineto
1049.9019 45.5683 lineto
closepath stroke
0 0 0 edgecolor
14 /Times-Roman set_font
1077 57.8 moveto 17 (No) alignedtext
grestore
% 74
gsave
1 setlinewidth
0 1 1 nodecolor
newpath 1166 36 moveto
1086 36 lineto
1086 0 lineto
1166 0 lineto
closepath stroke
0 0 0 nodecolor
14 /Times-Roman set_font
1094 14.3 moveto 64 (val = 0.000) alignedtext
grestore
% 36->74
gsave
1 setlinewidth
0 0 0 edgecolor
newpath 1116.4284 86.799 moveto
1118.0712 75.1626 1120.2756 59.5479 1122.1548 46.2368 curveto
stroke
0 0 0 edgecolor
newpath 1125.6429 46.5665 moveto
1123.5752 36.1754 lineto
1118.7116 45.588 lineto
closepath fill
1 setlinewidth
solid
0 0 0 edgecolor
newpath 1125.6429 46.5665 moveto
1123.5752 36.1754 lineto
1118.7116 45.588 lineto
closepath stroke
0 0 0 edgecolor
14 /Times-Roman set_font
1121 57.8 moveto 21 (Yes) alignedtext
grestore
% 75
gsave
1 setlinewidth
0 1 1 nodecolor
newpath 1264 36 moveto
1184 36 lineto
1184 0 lineto
1264 0 lineto
closepath stroke
0 0 0 nodecolor
14 /Times-Roman set_font
1192 14.3 moveto 64 (val = 0.000) alignedtext
grestore
% 37->75
gsave
1 setlinewidth
0 0 0 edgecolor
newpath 1292.2067 87.2067 moveto
1279.7151 74.7151 1262.4775 57.4775 1248.457 43.457 curveto
stroke
0 0 0 edgecolor
newpath 1250.5953 40.6455 moveto
1241.0493 36.0493 lineto
1245.6455 45.5953 lineto
closepath fill
1 setlinewidth
solid
0 0 0 edgecolor
newpath 1250.5953 40.6455 moveto
1241.0493 36.0493 lineto
1245.6455 45.5953 lineto
closepath stroke
0 0 0 edgecolor
14 /Times-Roman set_font
1272 57.8 moveto 17 (No) alignedtext
grestore
% 76
gsave
1 setlinewidth
0 1 1 nodecolor
newpath 1362 36 moveto
1282 36 lineto
1282 0 lineto
1362 0 lineto
closepath stroke
0 0 0 nodecolor
14 /Times-Roman set_font
1290 14.3 moveto 64 (val = 0.000) alignedtext
grestore
% 37->76
gsave
1 setlinewidth
0 0 0 edgecolor
newpath 1311.6307 86.799 moveto
1313.4104 75.1626 1315.7986 59.5479 1317.8344 46.2368 curveto
stroke
0 0 0 edgecolor
newpath 1321.321 46.5897 moveto
1319.3732 36.1754 lineto
1314.4015 45.5313 lineto
closepath fill
1 setlinewidth
solid
0 0 0 edgecolor
newpath 1321.321 46.5897 moveto
1319.3732 36.1754 lineto
1314.4015 45.5313 lineto
closepath stroke
0 0 0 edgecolor
14 /Times-Roman set_font
1317 57.8 moveto 21 (Yes) alignedtext
grestore
% 77
gsave
1 setlinewidth
0 1 1 nodecolor
newpath 1460 36 moveto
1380 36 lineto
1380 0 lineto
1460 0 lineto
closepath stroke
0 0 0 nodecolor
14 /Times-Roman set_font
1388 14.3 moveto 64 (val = 0.000) alignedtext
grestore
% 38->77
gsave
1 setlinewidth
0 0 0 edgecolor
newpath 1487.4043 87.2067 moveto
1475.0596 74.7151 1458.0248 57.4775 1444.1692 43.457 curveto
stroke
0 0 0 edgecolor
newpath 1446.3674 40.7019 moveto
1436.8487 36.0493 lineto
1441.3884 45.6223 lineto
closepath fill
1 setlinewidth
solid
0 0 0 edgecolor
newpath 1446.3674 40.7019 moveto
1436.8487 36.0493 lineto
1441.3884 45.6223 lineto
closepath stroke
0 0 0 edgecolor
14 /Times-Roman set_font
1468 57.8 moveto 17 (No) alignedtext
grestore
% 78
gsave
1 setlinewidth
0 1 1 nodecolor
newpath 1558 36 moveto
1478 36 lineto
1478 0 lineto
1558 0 lineto
closepath stroke
0 0 0 nodecolor
14 /Times-Roman set_font
1486 14.3 moveto 64 (val = 0.000) alignedtext
grestore
% 38->78
gsave
1 setlinewidth
0 0 0 edgecolor
newpath 1506.8331 86.799 moveto
1508.7497 75.1626 1511.3215 59.5479 1513.5139 46.2368 curveto
stroke
0 0 0 edgecolor
newpath 1516.9993 46.6113 moveto
1515.1711 36.1754 lineto
1510.0924 45.4737 lineto
closepath fill
1 setlinewidth
solid
0 0 0 edgecolor
newpath 1516.9993 46.6113 moveto
1515.1711 36.1754 lineto
1510.0924 45.4737 lineto
closepath stroke
0 0 0 edgecolor
14 /Times-Roman set_font
1512 57.8 moveto 21 (Yes) alignedtext
grestore
% 79
gsave
1 setlinewidth
0 1 1 nodecolor
newpath 1656 36 moveto
1576 36 lineto
1576 0 lineto
1656 0 lineto
closepath stroke
0 0 0 nodecolor
14 /Times-Roman set_font
1584 14.3 moveto 64 (val = 0.000) alignedtext
grestore
% 39->79
gsave
1 setlinewidth
0 0 0 edgecolor
newpath 1682.6019 87.2067 moveto
1670.4042 74.7151 1653.5721 57.4775 1639.8815 43.457 curveto
stroke
0 0 0 edgecolor
newpath 1642.1387 40.7588 moveto
1632.6482 36.0493 lineto
1637.1304 45.6493 lineto
closepath fill
1 setlinewidth
solid
0 0 0 edgecolor
newpath 1642.1387 40.7588 moveto
1632.6482 36.0493 lineto
1637.1304 45.6493 lineto
closepath stroke
0 0 0 edgecolor
14 /Times-Roman set_font
1663 57.8 moveto 17 (No) alignedtext
grestore
% 80
gsave
1 setlinewidth
0 1 1 nodecolor
newpath 1754 36 moveto
1674 36 lineto
1674 0 lineto
1754 0 lineto
closepath stroke
0 0 0 nodecolor
14 /Times-Roman set_font
1682 14.3 moveto 64 (val = 0.000) alignedtext
grestore
% 39->80
gsave
1 setlinewidth
0 0 0 edgecolor
newpath 1702.0355 86.799 moveto
1704.089 75.1626 1706.8445 59.5479 1709.1935 46.2368 curveto
stroke
0 0 0 edgecolor
newpath 1712.6778 46.6316 moveto
1710.969 36.1754 lineto
1705.7844 45.415 lineto
closepath fill
1 setlinewidth
solid
0 0 0 edgecolor
newpath 1712.6778 46.6316 moveto
1710.969 36.1754 lineto
1705.7844 45.415 lineto
closepath stroke
0 0 0 edgecolor
14 /Times-Roman set_font
1708 57.8 moveto 21 (Yes) alignedtext
grestore
% 81
gsave
1 setlinewidth
0 1 1 nodecolor
newpath 1856 36 moveto
1772 36 lineto
1772 0 lineto
1856 0 lineto
closepath stroke
0 0 0 nodecolor
14 /Times-Roman set_font
1780 14.3 moveto 68 (val = -0.012) alignedtext
grestore
% 40->81
gsave
1 setlinewidth
0 0 0 edgecolor
newpath 1878.1946 87.2067 moveto
1866.4377 74.7151 1850.2141 57.4775 1837.0183 43.457 curveto
stroke
0 0 0 edgecolor
newpath 1839.4488 40.9326 moveto
1830.0464 36.0493 lineto
1834.3514 45.7301 lineto
closepath fill
1 setlinewidth
solid
0 0 0 edgecolor
newpath 1839.4488 40.9326 moveto
1830.0464 36.0493 lineto
1834.3514 45.7301 lineto
closepath stroke
0 0 0 edgecolor
14 /Times-Roman set_font
1859 57.8 moveto 17 (No) alignedtext
grestore
% 82
gsave
1 setlinewidth
0 1 1 nodecolor
newpath 1958 36 moveto
1874 36 lineto
1874 0 lineto
1958 0 lineto
closepath stroke
0 0 0 nodecolor
14 /Times-Roman set_font
1882 14.3 moveto 68 (val = -0.041) alignedtext
grestore
% 40->82
gsave
1 setlinewidth
0 0 0 edgecolor
newpath 1898.452 86.799 moveto
1901.4638 75.1626 1905.5052 59.5479 1908.9505 46.2368 curveto
stroke
0 0 0 edgecolor
newpath 1912.4372 46.7334 moveto
1911.5546 36.1754 lineto
1905.6605 44.9794 lineto
closepath fill
1 setlinewidth
solid
0 0 0 edgecolor
newpath 1912.4372 46.7334 moveto
1911.5546 36.1754 lineto
1905.6605 44.9794 lineto
closepath stroke
0 0 0 edgecolor
14 /Times-Roman set_font
1907 57.8 moveto 21 (Yes) alignedtext
grestore
% 83
gsave
1 setlinewidth
0 1 1 nodecolor
newpath 2056 36 moveto
1976 36 lineto
1976 0 lineto
2056 0 lineto
closepath stroke
0 0 0 nodecolor
14 /Times-Roman set_font
1984 14.3 moveto 64 (val = 0.000) alignedtext
grestore
% 41->83
gsave
1 setlinewidth
0 0 0 edgecolor
newpath 2074.5775 87.2067 moveto
2063.9488 74.8308 2049.3192 57.7963 2037.3394 43.8472 curveto
stroke
0 0 0 edgecolor
newpath 2039.8128 41.3553 moveto
2030.6424 36.0493 lineto
2034.5024 45.916 lineto
closepath fill
1 setlinewidth
solid
0 0 0 edgecolor
newpath 2039.8128 41.3553 moveto
2030.6424 36.0493 lineto
2034.5024 45.916 lineto
closepath stroke
0 0 0 edgecolor
14 /Times-Roman set_font
2057 57.8 moveto 17 (No) alignedtext
grestore
% 84
gsave
1 setlinewidth
0 1 1 nodecolor
newpath 2154 36 moveto
2074 36 lineto
2074 0 lineto
2154 0 lineto
closepath stroke
0 0 0 nodecolor
14 /Times-Roman set_font
2082 14.3 moveto 64 (val = 0.000) alignedtext
grestore
% 41->84
gsave
1 setlinewidth
0 0 0 edgecolor
newpath 2094.0591 86.799 moveto
2097.5155 75.0474 2102.1652 59.2383 2106.1053 45.8421 curveto
stroke
0 0 0 edgecolor
newpath 2109.4844 46.7567 moveto
2108.9484 36.1754 lineto
2102.7689 44.7815 lineto
closepath fill
1 setlinewidth
solid
0 0 0 edgecolor
newpath 2109.4844 46.7567 moveto
2108.9484 36.1754 lineto
2102.7689 44.7815 lineto
closepath stroke
0 0 0 edgecolor
14 /Times-Roman set_font
2103 57.8 moveto 21 (Yes) alignedtext
grestore
% 85
gsave
1 setlinewidth
0 1 1 nodecolor
newpath 2252 36 moveto
2172 36 lineto
2172 0 lineto
2252 0 lineto
closepath stroke
0 0 0 nodecolor
14 /Times-Roman set_font
2180 14.3 moveto 64 (val = 0.000) alignedtext
grestore
% 42->85
gsave
1 setlinewidth
0 0 0 edgecolor
newpath 2269.7751 87.2067 moveto
2259.2919 74.8308 2244.8628 57.7963 2233.0471 43.8472 curveto
stroke
0 0 0 edgecolor
newpath 2235.5759 41.4176 moveto
2226.4418 36.0493 lineto
2230.2346 45.942 lineto
closepath fill
1 setlinewidth
solid
0 0 0 edgecolor
newpath 2235.5759 41.4176 moveto
2226.4418 36.0493 lineto
2230.2346 45.942 lineto
closepath stroke
0 0 0 edgecolor
14 /Times-Roman set_font
2253 57.8 moveto 17 (No) alignedtext
grestore
% 86
gsave
1 setlinewidth
0 1 1 nodecolor
newpath 2350 36 moveto
2270 36 lineto
2270 0 lineto
2350 0 lineto
closepath stroke
0 0 0 nodecolor
14 /Times-Roman set_font
2278 14.3 moveto 64 (val = 0.000) alignedtext
grestore
% 42->86
gsave
1 setlinewidth
0 0 0 edgecolor
newpath 2289.2615 86.799 moveto
2292.8561 75.0474 2297.6918 59.2383 2301.7895 45.8421 curveto
stroke
0 0 0 edgecolor
newpath 2305.1681 46.7619 moveto
2304.7463 36.1754 lineto
2298.4743 44.7143 lineto
closepath fill
1 setlinewidth
solid
0 0 0 edgecolor
newpath 2305.1681 46.7619 moveto
2304.7463 36.1754 lineto
2298.4743 44.7143 lineto
closepath stroke
0 0 0 edgecolor
14 /Times-Roman set_font
2299 57.8 moveto 21 (Yes) alignedtext
grestore
% 87
gsave
1 setlinewidth
0 1 1 nodecolor
newpath 2448 36 moveto
2368 36 lineto
2368 0 lineto
2448 0 lineto
closepath stroke
0 0 0 nodecolor
14 /Times-Roman set_font
2376 14.3 moveto 64 (val = 0.000) alignedtext
grestore
% 43->87
gsave
1 setlinewidth
0 0 0 edgecolor
newpath 2464.9727 87.2067 moveto
2454.6351 74.8308 2440.4063 57.7963 2428.7548 43.8472 curveto
stroke
0 0 0 edgecolor
newpath 2431.3381 41.4804 moveto
2422.2412 36.0493 lineto
2425.9658 45.9679 lineto
closepath fill
1 setlinewidth
solid
0 0 0 edgecolor
newpath 2431.3381 41.4804 moveto
2422.2412 36.0493 lineto
2425.9658 45.9679 lineto
closepath stroke
0 0 0 edgecolor
14 /Times-Roman set_font
2448 57.8 moveto 17 (No) alignedtext
grestore
% 88
gsave
1 setlinewidth
0 1 1 nodecolor
newpath 2546 36 moveto
2466 36 lineto
2466 0 lineto
2546 0 lineto
closepath stroke
0 0 0 nodecolor
14 /Times-Roman set_font
2474 14.3 moveto 64 (val = 0.000) alignedtext
grestore
% 43->88
gsave
1 setlinewidth
0 0 0 edgecolor
newpath 2484.4639 86.799 moveto
2488.1967 75.0474 2493.2184 59.2383 2497.4737 45.8421 curveto
stroke
0 0 0 edgecolor
newpath 2500.8526 46.7658 moveto
2500.5443 36.1754 lineto
2494.181 44.6466 lineto
closepath fill
1 setlinewidth
solid
0 0 0 edgecolor
newpath 2500.8526 46.7658 moveto
2500.5443 36.1754 lineto
2494.181 44.6466 lineto
closepath stroke
0 0 0 edgecolor
14 /Times-Roman set_font
2495 57.8 moveto 21 (Yes) alignedtext
grestore
% 89
gsave
1 setlinewidth
0 1 1 nodecolor
newpath 2644 36 moveto
2564 36 lineto
2564 0 lineto
2644 0 lineto
closepath stroke
0 0 0 nodecolor
14 /Times-Roman set_font
2572 14.3 moveto 64 (val = 0.000) alignedtext
grestore
% 44->89
gsave
1 setlinewidth
0 0 0 edgecolor
newpath 2660.1703 87.2067 moveto
2649.9783 74.8308 2635.9499 57.7963 2624.4624 43.8472 curveto
stroke
0 0 0 edgecolor
newpath 2627.0995 41.5437 moveto
2618.0406 36.0493 lineto
2621.696 45.9936 lineto
closepath fill
1 setlinewidth
solid
0 0 0 edgecolor
newpath 2627.0995 41.5437 moveto
2618.0406 36.0493 lineto
2621.696 45.9936 lineto
closepath stroke
0 0 0 edgecolor
14 /Times-Roman set_font
2644 57.8 moveto 17 (No) alignedtext
grestore
% 90
gsave
1 setlinewidth
0 1 1 nodecolor
newpath 2742 36 moveto
2662 36 lineto
2662 0 lineto
2742 0 lineto
closepath stroke
0 0 0 nodecolor
14 /Times-Roman set_font
2670 14.3 moveto 64 (val = 0.000) alignedtext
grestore
% 44->90
gsave
1 setlinewidth
0 0 0 edgecolor
newpath 2679.6662 86.799 moveto
2683.5373 75.0474 2688.745 59.2383 2693.1579 45.8421 curveto
stroke
0 0 0 edgecolor
newpath 2696.5377 46.7685 moveto
2696.3422 36.1754 lineto
2689.8891 44.5783 lineto
closepath fill
1 setlinewidth
solid
0 0 0 edgecolor
newpath 2696.5377 46.7685 moveto
2696.3422 36.1754 lineto
2689.8891 44.5783 lineto
closepath stroke
0 0 0 edgecolor
14 /Times-Roman set_font
2690 57.8 moveto 21 (Yes) alignedtext
grestore
% 91
gsave
1 setlinewidth
0 1 1 nodecolor
newpath 2840 36 moveto
2760 36 lineto
2760 0 lineto
2840 0 lineto
closepath stroke
0 0 0 nodecolor
14 /Times-Roman set_font
2768 14.3 moveto 64 (val = 0.000) alignedtext
grestore
% 45->91
gsave
1 setlinewidth
0 0 0 edgecolor
newpath 2855.3678 87.2067 moveto
2845.3214 74.8308 2831.4935 57.7963 2820.1701 43.8472 curveto
stroke
0 0 0 edgecolor
newpath 2822.8599 41.6074 moveto
2813.84 36.0493 lineto
2817.4252 46.0192 lineto
closepath fill
1 setlinewidth
solid
0 0 0 edgecolor
newpath 2822.8599 41.6074 moveto
2813.84 36.0493 lineto
2817.4252 46.0192 lineto
closepath stroke
0 0 0 edgecolor
14 /Times-Roman set_font
2839 57.8 moveto 17 (No) alignedtext
grestore
% 92
gsave
1 setlinewidth
0 1 1 nodecolor
newpath 2938 36 moveto
2858 36 lineto
2858 0 lineto
2938 0 lineto
closepath stroke
0 0 0 nodecolor
14 /Times-Roman set_font
2866 14.3 moveto 64 (val = 0.000) alignedtext
grestore
% 45->92
gsave
1 setlinewidth
0 0 0 edgecolor
newpath 2874.8686 86.799 moveto
2878.878 75.0474 2884.2716 59.2383 2888.8421 45.8421 curveto
stroke
0 0 0 edgecolor
newpath 2892.2236 46.7699 moveto
2892.1401 36.1754 lineto
2885.5986 44.5096 lineto
closepath fill
1 setlinewidth
solid
0 0 0 edgecolor
newpath 2892.2236 46.7699 moveto
2892.1401 36.1754 lineto
2885.5986 44.5096 lineto
closepath stroke
0 0 0 edgecolor
14 /Times-Roman set_font
2886 57.8 moveto 21 (Yes) alignedtext
grestore
% 93
gsave
1 setlinewidth
0 1 1 nodecolor
newpath 3036 36 moveto
2956 36 lineto
2956 0 lineto
3036 0 lineto
closepath stroke
0 0 0 nodecolor
14 /Times-Roman set_font
2964 14.3 moveto 64 (val = 0.000) alignedtext
grestore
% 46->93
gsave
1 setlinewidth
0 0 0 edgecolor
newpath 3050.5654 87.2067 moveto
3040.7571 74.9464 3027.2914 58.1143 3016.1913 44.2391 curveto
stroke
0 0 0 edgecolor
newpath 3018.6195 41.6716 moveto
3009.6395 36.0493 lineto
3013.1534 46.0445 lineto
closepath fill
1 setlinewidth
solid
0 0 0 edgecolor
newpath 3018.6195 41.6716 moveto
3009.6395 36.0493 lineto
3013.1534 46.0445 lineto
closepath stroke
0 0 0 edgecolor
14 /Times-Roman set_font
3035 57.8 moveto 17 (No) alignedtext
grestore
% 94
gsave
1 setlinewidth
0 1 1 nodecolor
newpath 3134 36 moveto
3054 36 lineto
3054 0 lineto
3134 0 lineto
closepath stroke
0 0 0 nodecolor
14 /Times-Roman set_font
3062 14.3 moveto 64 (val = 0.000) alignedtext
grestore
% 46->94
gsave
1 setlinewidth
0 0 0 edgecolor
newpath 3070.0709 86.799 moveto
3074.2186 75.0474 3079.7982 59.2383 3084.5263 45.8421 curveto
stroke
0 0 0 edgecolor
newpath 3087.9103 46.7702 moveto
3087.9381 36.1754 lineto
3081.3093 44.4405 lineto
closepath fill
1 setlinewidth
solid
0 0 0 edgecolor
newpath 3087.9103 46.7702 moveto
3087.9381 36.1754 lineto
3081.3093 44.4405 lineto
closepath stroke
0 0 0 edgecolor
14 /Times-Roman set_font
3081 57.8 moveto 21 (Yes) alignedtext
grestore
% 95
gsave
1 setlinewidth
0 1 1 nodecolor
newpath 3232 36 moveto
3152 36 lineto
3152 0 lineto
3232 0 lineto
closepath stroke
0 0 0 nodecolor
14 /Times-Roman set_font
3160 14.3 moveto 64 (val = 0.046) alignedtext
grestore
% 47->95
gsave
1 setlinewidth
0 0 0 edgecolor
newpath 3245.4416 86.799 moveto
3235.8153 74.5865 3222.735 57.9921 3211.9247 44.2776 curveto
stroke
0 0 0 edgecolor
newpath 3214.4775 41.8623 moveto
3205.5383 36.1754 lineto
3208.98 46.1957 lineto
closepath fill
1 setlinewidth
solid
0 0 0 edgecolor
newpath 3214.4775 41.8623 moveto
3205.5383 36.1754 lineto
3208.98 46.1957 lineto
closepath stroke
0 0 0 edgecolor
14 /Times-Roman set_font
3230 57.8 moveto 17 (No) alignedtext
grestore
% 96
gsave
1 setlinewidth
0 1 1 nodecolor
newpath 3334 36 moveto
3250 36 lineto
3250 0 lineto
3334 0 lineto
closepath stroke
0 0 0 nodecolor
14 /Times-Roman set_font
3258 14.3 moveto 68 (val = -0.017) alignedtext
grestore
% 47->96
gsave
1 setlinewidth
0 0 0 edgecolor
newpath 3265.678 86.799 moveto
3270.2404 75.0474 3276.3781 59.2383 3281.5789 45.8421 curveto
stroke
0 0 0 edgecolor
newpath 3284.9754 46.7643 moveto
3285.3319 36.1754 lineto
3278.4499 44.2308 lineto
closepath fill
1 setlinewidth
solid
0 0 0 edgecolor
newpath 3284.9754 46.7643 moveto
3285.3319 36.1754 lineto
3278.4499 44.2308 lineto
closepath stroke
0 0 0 edgecolor
14 /Times-Roman set_font
3278 57.8 moveto 21 (Yes) alignedtext
grestore
% 97
gsave
1 setlinewidth
0 1 1 nodecolor
newpath 3436 36 moveto
3352 36 lineto
3352 0 lineto
3436 0 lineto
closepath stroke
0 0 0 nodecolor
14 /Times-Roman set_font
3360 14.3 moveto 68 (val = -0.022) alignedtext
grestore
% 48->97
gsave
1 setlinewidth
0 0 0 edgecolor
newpath 3441.8581 86.799 moveto
3433.3189 74.7017 3421.7446 58.3049 3412.1175 44.6665 curveto
stroke
0 0 0 edgecolor
newpath 3414.7501 42.3267 moveto
3406.1238 36.1754 lineto
3409.0313 46.3635 lineto
closepath fill
1 setlinewidth
solid
0 0 0 edgecolor
newpath 3414.7501 42.3267 moveto
3406.1238 36.1754 lineto
3409.0313 46.3635 lineto
closepath stroke
0 0 0 edgecolor
14 /Times-Roman set_font
3428 57.8 moveto 17 (No) alignedtext
grestore
% 98
gsave
1 setlinewidth
0 1 1 nodecolor
newpath 3538 36 moveto
3454 36 lineto
3454 0 lineto
3538 0 lineto
closepath stroke
0 0 0 nodecolor
14 /Times-Roman set_font
3462 14.3 moveto 68 (val = -0.047) alignedtext
grestore
% 48->98
gsave
1 setlinewidth
0 0 0 edgecolor
newpath 3462.4993 86.799 moveto
3468.3629 74.9322 3476.2709 58.9279 3482.9312 45.4488 curveto
stroke
0 0 0 edgecolor
newpath 3486.2212 46.6912 moveto
3487.5133 36.1754 lineto
3479.9455 43.5902 lineto
closepath fill
1 setlinewidth
solid
0 0 0 edgecolor
newpath 3486.2212 46.6912 moveto
3487.5133 36.1754 lineto
3479.9455 43.5902 lineto
closepath stroke
0 0 0 edgecolor
14 /Times-Roman set_font
3478 57.8 moveto 21 (Yes) alignedtext
grestore
% 99
gsave
1 setlinewidth
0 1 1 nodecolor
newpath 3636 36 moveto
3556 36 lineto
3556 0 lineto
3636 0 lineto
closepath stroke
0 0 0 nodecolor
14 /Times-Roman set_font
3564 14.3 moveto 64 (val = 0.205) alignedtext
grestore
% 49->99
gsave
1 setlinewidth
0 0 0 edgecolor
newpath 3638.2747 86.799 moveto
3630.7317 74.7017 3620.5077 58.3049 3612.0038 44.6665 curveto
stroke
0 0 0 edgecolor
newpath 3614.9704 42.8092 moveto
3606.7094 36.1754 lineto
3609.0305 46.5129 lineto
closepath fill
1 setlinewidth
solid
0 0 0 edgecolor
newpath 3614.9704 42.8092 moveto
3606.7094 36.1754 lineto
3609.0305 46.5129 lineto
closepath stroke
0 0 0 edgecolor
14 /Times-Roman set_font
3626 57.8 moveto 17 (No) alignedtext
grestore
% 100
gsave
1 setlinewidth
0 1 1 nodecolor
newpath 3734 36 moveto
3654 36 lineto
3654 0 lineto
3734 0 lineto
closepath stroke
0 0 0 nodecolor
14 /Times-Roman set_font
3662 14.3 moveto 64 (val = 0.000) alignedtext
grestore
% 49->100
gsave
1 setlinewidth
0 0 0 edgecolor
newpath 3658.1064 86.799 moveto
3664.4499 74.8169 3673.0264 58.6168 3680.2052 45.0569 curveto
stroke
0 0 0 edgecolor
newpath 3683.3215 46.651 moveto
3684.9071 36.1754 lineto
3677.1349 43.3757 lineto
closepath fill
1 setlinewidth
solid
0 0 0 edgecolor
newpath 3683.3215 46.651 moveto
3684.9071 36.1754 lineto
3677.1349 43.3757 lineto
closepath stroke
0 0 0 edgecolor
14 /Times-Roman set_font
3675 57.8 moveto 21 (Yes) alignedtext
grestore
% 101
gsave
1 setlinewidth
0 1 1 nodecolor
newpath 3836 36 moveto
3752 36 lineto
3752 0 lineto
3836 0 lineto
closepath stroke
0 0 0 nodecolor
14 /Times-Roman set_font
3760 14.3 moveto 68 (val = -0.063) alignedtext
grestore
% 50->101
gsave
1 setlinewidth
0 0 0 edgecolor
newpath 3833.8818 86.799 moveto
3826.8335 74.8169 3817.304 58.6168 3809.3276 45.0569 curveto
stroke
0 0 0 edgecolor
newpath 3812.1902 43.0202 moveto
3804.1032 36.1754 lineto
3806.1567 46.5694 lineto
closepath fill
1 setlinewidth
solid
0 0 0 edgecolor
newpath 3812.1902 43.0202 moveto
3804.1032 36.1754 lineto
3806.1567 46.5694 lineto
closepath stroke
0 0 0 edgecolor
14 /Times-Roman set_font
3822 57.8 moveto 17 (No) alignedtext
grestore
% 102
gsave
1 setlinewidth
0 1 1 nodecolor
newpath 3938 36 moveto
3854 36 lineto
3854 0 lineto
3938 0 lineto
closepath stroke
0 0 0 nodecolor
14 /Times-Roman set_font
3862 14.3 moveto 68 (val = -0.071) alignedtext
grestore
% 50->102
gsave
1 setlinewidth
0 0 0 edgecolor
newpath 3854.523 86.799 moveto
3861.8532 74.8169 3871.7638 58.6168 3880.0593 45.0569 curveto
stroke
0 0 0 edgecolor
newpath 3883.2597 46.5323 moveto
3885.4927 36.1754 lineto
3877.2884 42.8793 lineto
closepath fill
1 setlinewidth
solid
0 0 0 edgecolor
newpath 3883.2597 46.5323 moveto
3885.4927 36.1754 lineto
3877.2884 42.8793 lineto
closepath stroke
0 0 0 edgecolor
14 /Times-Roman set_font
3874 57.8 moveto 21 (Yes) alignedtext
grestore
% 103
gsave
1 setlinewidth
0 1 1 nodecolor
newpath 4036 36 moveto
3956 36 lineto
3956 0 lineto
4036 0 lineto
closepath stroke
0 0 0 nodecolor
14 /Times-Roman set_font
3964 14.3 moveto 64 (val = 0.000) alignedtext
grestore
% 51->103
gsave
1 setlinewidth
0 0 0 edgecolor
newpath 4030.2983 86.799 moveto
4024.2951 74.9322 4016.1988 58.9279 4009.38 45.4488 curveto
stroke
0 0 0 edgecolor
newpath 4012.326 43.5187 moveto
4004.6888 36.1754 lineto
4006.0798 46.6786 lineto
closepath fill
1 setlinewidth
solid
0 0 0 edgecolor
newpath 4012.326 43.5187 moveto
4004.6888 36.1754 lineto
4006.0798 46.6786 lineto
closepath stroke
0 0 0 edgecolor
14 /Times-Roman set_font
4021 57.8 moveto 17 (No) alignedtext
grestore
% 104
gsave
1 setlinewidth
0 1 1 nodecolor
newpath 4138 36 moveto
4054 36 lineto
4054 0 lineto
4138 0 lineto
closepath stroke
0 0 0 nodecolor
14 /Times-Roman set_font
4062 14.3 moveto 68 (val = -0.072) alignedtext
grestore
% 51->104
gsave
1 setlinewidth
0 0 0 edgecolor
newpath 4050.5348 86.799 moveto
4058.6471 74.7017 4069.6426 58.3049 4078.7883 44.6665 curveto
stroke
0 0 0 edgecolor
newpath 4081.8197 46.4302 moveto
4084.4824 36.1754 lineto
4076.0059 42.5315 lineto
closepath fill
1 setlinewidth
solid
0 0 0 edgecolor
newpath 4081.8197 46.4302 moveto
4084.4824 36.1754 lineto
4076.0059 42.5315 lineto
closepath stroke
0 0 0 edgecolor
14 /Times-Roman set_font
4071 57.8 moveto 21 (Yes) alignedtext
grestore
% 105
gsave
1 setlinewidth
0 1 1 nodecolor
newpath 4236 36 moveto
4156 36 lineto
4156 0 lineto
4236 0 lineto
closepath stroke
0 0 0 nodecolor
14 /Times-Roman set_font
4164 14.3 moveto 64 (val = 0.000) alignedtext
grestore
% 52->105
gsave
1 setlinewidth
0 0 0 edgecolor
newpath 4226.3101 86.799 moveto
4221.005 74.9322 4213.8501 58.9279 4207.8242 45.4488 curveto
stroke
0 0 0 edgecolor
newpath 4210.955 43.8762 moveto
4203.6784 36.1754 lineto
4204.5646 46.7332 lineto
closepath fill
1 setlinewidth
solid
0 0 0 edgecolor
newpath 4210.955 43.8762 moveto
4203.6784 36.1754 lineto
4204.5646 46.7332 lineto
closepath stroke
0 0 0 edgecolor
14 /Times-Roman set_font
4218 57.8 moveto 17 (No) alignedtext
grestore
% 106
gsave
1 setlinewidth
0 1 1 nodecolor
newpath 4338 36 moveto
4254 36 lineto
4254 0 lineto
4338 0 lineto
closepath stroke
0 0 0 nodecolor
14 /Times-Roman set_font
4262 14.3 moveto 68 (val = -0.069) alignedtext
grestore
% 52->106
gsave
1 setlinewidth
0 0 0 edgecolor
newpath 4246.5466 86.799 moveto
4255.4545 74.5865 4267.5587 57.9921 4277.5622 44.2776 curveto
stroke
0 0 0 edgecolor
newpath 4280.4067 46.3172 moveto
4283.472 36.1754 lineto
4274.7513 42.192 lineto
closepath fill
1 setlinewidth
solid
0 0 0 edgecolor
newpath 4280.4067 46.3172 moveto
4283.472 36.1754 lineto
4274.7513 42.192 lineto
closepath stroke
0 0 0 edgecolor
14 /Times-Roman set_font
4269 57.8 moveto 21 (Yes) alignedtext
grestore
% 107
gsave
1 setlinewidth
0 1 1 nodecolor
newpath 4436 36 moveto
4356 36 lineto
4356 0 lineto
4436 0 lineto
closepath stroke
0 0 0 nodecolor
14 /Times-Roman set_font
4364 14.3 moveto 64 (val = 0.258) alignedtext
grestore
% 53->107
gsave
1 setlinewidth
0 0 0 edgecolor
newpath 4422.322 86.799 moveto
4417.7596 75.0474 4411.6219 59.2383 4406.4211 45.8421 curveto
stroke
0 0 0 edgecolor
newpath 4409.5501 44.2308 moveto
4402.6681 36.1754 lineto
4403.0246 46.7643 lineto
closepath fill
1 setlinewidth
solid
0 0 0 edgecolor
newpath 4409.5501 44.2308 moveto
4402.6681 36.1754 lineto
4403.0246 46.7643 lineto
closepath stroke
0 0 0 edgecolor
14 /Times-Roman set_font
4415 57.8 moveto 17 (No) alignedtext
grestore
% 108
gsave
1 setlinewidth
0 1 1 nodecolor
newpath 4538 36 moveto
4454 36 lineto
4454 0 lineto
4538 0 lineto
closepath stroke
0 0 0 nodecolor
14 /Times-Roman set_font
4462 14.3 moveto 68 (val = -0.064) alignedtext
grestore
% 53->108
gsave
1 setlinewidth
0 0 0 edgecolor
newpath 4442.5584 86.799 moveto
4452.1847 74.5865 4465.265 57.9921 4476.0753 44.2776 curveto
stroke
0 0 0 edgecolor
newpath 4479.02 46.1957 moveto
4482.4617 36.1754 lineto
4473.5225 41.8623 lineto
closepath fill
1 setlinewidth
solid
0 0 0 edgecolor
newpath 4479.02 46.1957 moveto
4482.4617 36.1754 lineto
4473.5225 41.8623 lineto
closepath stroke
0 0 0 edgecolor
14 /Times-Roman set_font
4467 57.8 moveto 21 (Yes) alignedtext
grestore
% 109
gsave
1 setlinewidth
0 1 1 nodecolor
newpath 4636 36 moveto
4556 36 lineto
4556 0 lineto
4636 0 lineto
closepath stroke
0 0 0 nodecolor
14 /Times-Roman set_font
4564 14.3 moveto 64 (val = 0.184) alignedtext
grestore
% 54->109
gsave
1 setlinewidth
0 0 0 edgecolor
newpath 4618.3338 86.799 moveto
4614.4627 75.0474 4609.255 59.2383 4604.8421 45.8421 curveto
stroke
0 0 0 edgecolor
newpath 4608.1109 44.5783 moveto
4601.6578 36.1754 lineto
4601.4623 46.7685 lineto
closepath fill
1 setlinewidth
solid
0 0 0 edgecolor
newpath 4608.1109 44.5783 moveto
4601.6578 36.1754 lineto
4601.4623 46.7685 lineto
closepath stroke
0 0 0 edgecolor
14 /Times-Roman set_font
4612 57.8 moveto 17 (No) alignedtext
grestore
% 110
gsave
1 setlinewidth
0 1 1 nodecolor
newpath 4738 36 moveto
4654 36 lineto
4654 0 lineto
4738 0 lineto
closepath stroke
0 0 0 nodecolor
14 /Times-Roman set_font
4662 14.3 moveto 68 (val = -0.060) alignedtext
grestore
% 54->110
gsave
1 setlinewidth
0 0 0 edgecolor
newpath 4638.2249 87.2067 moveto
4648.7081 74.8308 4663.1372 57.7963 4674.9529 43.8472 curveto
stroke
0 0 0 edgecolor
newpath 4677.7654 45.942 moveto
4681.5582 36.0493 lineto
4672.4241 41.4176 lineto
closepath fill
1 setlinewidth
solid
0 0 0 edgecolor
newpath 4677.7654 45.942 moveto
4681.5582 36.0493 lineto
4672.4241 41.4176 lineto
closepath stroke
0 0 0 edgecolor
14 /Times-Roman set_font
4665 57.8 moveto 21 (Yes) alignedtext
grestore
% 111
gsave
1 setlinewidth
0 1 1 nodecolor
newpath 4836 36 moveto
4756 36 lineto
4756 0 lineto
4836 0 lineto
closepath stroke
0 0 0 nodecolor
14 /Times-Roman set_font
4764 14.3 moveto 64 (val = 0.150) alignedtext
grestore
% 55->111
gsave
1 setlinewidth
0 0 0 edgecolor
newpath 4814.3456 86.799 moveto
4811.1658 75.0474 4806.888 59.2383 4803.2632 45.8421 curveto
stroke
0 0 0 edgecolor
newpath 4806.638 44.9141 moveto
4800.6475 36.1754 lineto
4799.881 46.7425 lineto
closepath fill
1 setlinewidth
solid
0 0 0 edgecolor
newpath 4806.638 44.9141 moveto
4800.6475 36.1754 lineto
4799.881 46.7425 lineto
closepath stroke
0 0 0 edgecolor
14 /Times-Roman set_font
4809 57.8 moveto 17 (No) alignedtext
grestore
% 112
gsave
1 setlinewidth
0 1 1 nodecolor
newpath 4934 36 moveto
4854 36 lineto
4854 0 lineto
4934 0 lineto
closepath stroke
0 0 0 nodecolor
14 /Times-Roman set_font
4862 14.3 moveto 64 (val = 0.051) alignedtext
grestore
% 55->112
gsave
1 setlinewidth
0 0 0 edgecolor
newpath 4833.8176 87.2067 moveto
4844.7376 74.8308 4859.768 57.7963 4872.076 43.8472 curveto
stroke
0 0 0 edgecolor
newpath 4874.9647 45.8634 moveto
4878.9565 36.0493 lineto
4869.7158 41.232 lineto
closepath fill
1 setlinewidth
solid
0 0 0 edgecolor
newpath 4874.9647 45.8634 moveto
4878.9565 36.0493 lineto
4869.7158 41.232 lineto
closepath stroke
0 0 0 edgecolor
14 /Times-Roman set_font
4861 57.8 moveto 21 (Yes) alignedtext
grestore
% 113
gsave
1 setlinewidth
0 1 1 nodecolor
newpath 5036 36 moveto
4952 36 lineto
4952 0 lineto
5036 0 lineto
closepath stroke
0 0 0 nodecolor
14 /Times-Roman set_font
4960 14.3 moveto 68 (val = -0.016) alignedtext
grestore
% 56->113
gsave
1 setlinewidth
0 0 0 edgecolor
newpath 5009.9527 86.799 moveto
5007.2147 75.1626 5003.5407 59.5479 5000.4087 46.2368 curveto
stroke
0 0 0 edgecolor
newpath 5003.7387 45.1079 moveto
4998.0413 36.1754 lineto
4996.9248 46.7113 lineto
closepath fill
1 setlinewidth
solid
0 0 0 edgecolor
newpath 5003.7387 45.1079 moveto
4998.0413 36.1754 lineto
4996.9248 46.7113 lineto
closepath stroke
0 0 0 edgecolor
14 /Times-Roman set_font
5006 57.8 moveto 17 (No) alignedtext
grestore
% 114
gsave
1 setlinewidth
0 1 1 nodecolor
newpath 5138 36 moveto
5054 36 lineto
5054 0 lineto
5138 0 lineto
closepath stroke
0 0 0 nodecolor
14 /Times-Roman set_font
5062 14.3 moveto 68 (val = -0.036) alignedtext
grestore
% 56->114
gsave
1 setlinewidth
0 0 0 edgecolor
newpath 5030.2006 87.2067 moveto
5042.2513 74.7151 5058.8805 57.4775 5072.4062 43.457 curveto
stroke
0 0 0 edgecolor
newpath 5075.1284 45.6763 moveto
5079.5524 36.0493 lineto
5070.0905 40.8162 lineto
closepath fill
1 setlinewidth
solid
0 0 0 edgecolor
newpath 5075.1284 45.6763 moveto
5079.5524 36.0493 lineto
5070.0905 40.8162 lineto
closepath stroke
0 0 0 edgecolor
14 /Times-Roman set_font
5060 57.8 moveto 21 (Yes) alignedtext
grestore
% 115
gsave
1 setlinewidth
0 1 1 nodecolor
newpath 5236 36 moveto
5156 36 lineto
5156 0 lineto
5236 0 lineto
closepath stroke
0 0 0 nodecolor
14 /Times-Roman set_font
5164 14.3 moveto 64 (val = 0.179) alignedtext
grestore
% 57->115
gsave
1 setlinewidth
0 0 0 edgecolor
newpath 5206.3693 86.799 moveto
5204.5896 75.1626 5202.2014 59.5479 5200.1656 46.2368 curveto
stroke
0 0 0 edgecolor
newpath 5203.5985 45.5313 moveto
5198.6268 36.1754 lineto
5196.679 46.5897 lineto
closepath fill
1 setlinewidth
solid
0 0 0 edgecolor
newpath 5203.5985 45.5313 moveto
5198.6268 36.1754 lineto
5196.679 46.5897 lineto
closepath stroke
0 0 0 edgecolor
14 /Times-Roman set_font
5204 57.8 moveto 17 (No) alignedtext
grestore
% 116
gsave
1 setlinewidth
0 1 1 nodecolor
newpath 5334 36 moveto
5254 36 lineto
5254 0 lineto
5334 0 lineto
closepath stroke
0 0 0 nodecolor
14 /Times-Roman set_font
5262 14.3 moveto 64 (val = 0.198) alignedtext
grestore
% 57->116
gsave
1 setlinewidth
0 0 0 edgecolor
newpath 5225.7933 87.2067 moveto
5238.2849 74.7151 5255.5225 57.4775 5269.543 43.457 curveto
stroke
0 0 0 edgecolor
newpath 5272.3545 45.5953 moveto
5276.9507 36.0493 lineto
5267.4047 40.6455 lineto
closepath fill
1 setlinewidth
solid
0 0 0 edgecolor
newpath 5272.3545 45.5953 moveto
5276.9507 36.0493 lineto
5267.4047 40.6455 lineto
closepath stroke
0 0 0 edgecolor
14 /Times-Roman set_font
5257 57.8 moveto 21 (Yes) alignedtext
grestore
% 117
gsave
1 setlinewidth
0 1 1 nodecolor
newpath 5432 36 moveto
5352 36 lineto
5352 0 lineto
5432 0 lineto
closepath stroke
0 0 0 nodecolor
14 /Times-Roman set_font
5360 14.3 moveto 64 (val = 0.079) alignedtext
grestore
% 58->117
gsave
1 setlinewidth
0 0 0 edgecolor
newpath 5401.5716 86.799 moveto
5399.9288 75.1626 5397.7244 59.5479 5395.8452 46.2368 curveto
stroke
0 0 0 edgecolor
newpath 5399.2884 45.588 moveto
5394.4248 36.1754 lineto
5392.3571 46.5665 lineto
closepath fill
1 setlinewidth
solid
0 0 0 edgecolor
newpath 5399.2884 45.588 moveto
5394.4248 36.1754 lineto
5392.3571 46.5665 lineto
closepath stroke
0 0 0 edgecolor
14 /Times-Roman set_font
5399 57.8 moveto 17 (No) alignedtext
grestore
% 118
gsave
1 setlinewidth
0 1 1 nodecolor
newpath 5534 36 moveto
5450 36 lineto
5450 0 lineto
5534 0 lineto
closepath stroke
0 0 0 nodecolor
14 /Times-Roman set_font
5458 14.3 moveto 68 (val = -0.070) alignedtext
grestore
% 58->118
gsave
1 setlinewidth
0 0 0 edgecolor
newpath 5421.386 87.2067 moveto
5434.4382 74.5994 5452.4954 57.1579 5467.0822 43.0683 curveto
stroke
0 0 0 edgecolor
newpath 5469.5879 45.5142 moveto
5474.3489 36.0493 lineto
5464.7247 40.4793 lineto
closepath fill
1 setlinewidth
solid
0 0 0 edgecolor
newpath 5469.5879 45.5142 moveto
5474.3489 36.0493 lineto
5464.7247 40.4793 lineto
closepath stroke
0 0 0 edgecolor
14 /Times-Roman set_font
5454 57.8 moveto 21 (Yes) alignedtext
grestore
% 119
gsave
1 setlinewidth
0 1 1 nodecolor
newpath 5632 36 moveto
5552 36 lineto
5552 0 lineto
5632 0 lineto
closepath stroke
0 0 0 nodecolor
14 /Times-Roman set_font
5560 14.3 moveto 64 (val = 0.000) alignedtext
grestore
% 59->119
gsave
1 setlinewidth
0 0 0 edgecolor
newpath 5597.5834 86.799 moveto
5596.6252 75.1626 5595.3392 59.5479 5594.243 46.2368 curveto
stroke
0 0 0 edgecolor
newpath 5597.7235 45.8544 moveto
5593.4144 36.1754 lineto
5590.7471 46.429 lineto
closepath fill
1 setlinewidth
solid
0 0 0 edgecolor
newpath 5597.7235 45.8544 moveto
5593.4144 36.1754 lineto
5590.7471 46.429 lineto
closepath stroke
0 0 0 edgecolor
14 /Times-Roman set_font
5596 57.8 moveto 17 (No) alignedtext
grestore
% 120
gsave
1 setlinewidth
0 1 1 nodecolor
newpath 5730 36 moveto
5650 36 lineto
5650 0 lineto
5730 0 lineto
closepath stroke
0 0 0 nodecolor
14 /Times-Roman set_font
5658 14.3 moveto 64 (val = 0.000) alignedtext
grestore
% 59->120
gsave
1 setlinewidth
0 0 0 edgecolor
newpath 5616.9787 87.2067 moveto
5630.4759 74.5994 5649.1486 57.1579 5664.2327 43.0683 curveto
stroke
0 0 0 edgecolor
newpath 5666.8284 45.4332 moveto
5671.7472 36.0493 lineto
5662.0502 40.3176 lineto
closepath fill
1 setlinewidth
solid
0 0 0 edgecolor
newpath 5666.8284 45.4332 moveto
5671.7472 36.0493 lineto
5662.0502 40.3176 lineto
closepath stroke
0 0 0 edgecolor
14 /Times-Roman set_font
5650 57.8 moveto 21 (Yes) alignedtext
grestore
% 121
gsave
1 setlinewidth
0 1 1 nodecolor
newpath 5828 36 moveto
5748 36 lineto
5748 0 lineto
5828 0 lineto
closepath stroke
0 0 0 nodecolor
14 /Times-Roman set_font
5756 14.3 moveto 64 (val = 0.000) alignedtext
grestore
% 60->121
gsave
1 setlinewidth
0 0 0 edgecolor
newpath 5792.7858 86.799 moveto
5791.9644 75.1626 5790.8622 59.5479 5789.9226 46.2368 curveto
stroke
0 0 0 edgecolor
newpath 5793.4079 45.9041 moveto
5789.2124 36.1754 lineto
5786.4253 46.3971 lineto
closepath fill
1 setlinewidth
solid
0 0 0 edgecolor
newpath 5793.4079 45.9041 moveto
5789.2124 36.1754 lineto
5786.4253 46.3971 lineto
closepath stroke
0 0 0 edgecolor
14 /Times-Roman set_font
5792 57.8 moveto 17 (No) alignedtext
grestore
% 122
gsave
1 setlinewidth
0 1 1 nodecolor
newpath 5926 36 moveto
5846 36 lineto
5846 0 lineto
5926 0 lineto
closepath stroke
0 0 0 nodecolor
14 /Times-Roman set_font
5854 14.3 moveto 64 (val = 0.000) alignedtext
grestore
% 60->122
gsave
1 setlinewidth
0 0 0 edgecolor
newpath 5812.1762 87.2067 moveto
5825.8218 74.5994 5844.6997 57.1579 5859.9496 43.0683 curveto
stroke
0 0 0 edgecolor
newpath 5862.5768 45.4062 moveto
5867.5466 36.0493 lineto
5857.8265 40.2647 lineto
closepath fill
1 setlinewidth
solid
0 0 0 edgecolor
newpath 5862.5768 45.4062 moveto
5867.5466 36.0493 lineto
5857.8265 40.2647 lineto
closepath stroke
0 0 0 edgecolor
14 /Times-Roman set_font
5846 57.8 moveto 21 (Yes) alignedtext
grestore
% 123
gsave
1 setlinewidth
0 1 1 nodecolor
newpath 6024 36 moveto
5944 36 lineto
5944 0 lineto
6024 0 lineto
closepath stroke
0 0 0 nodecolor
14 /Times-Roman set_font
5952 14.3 moveto 64 (val = 0.253) alignedtext
grestore
% 61->123
gsave
1 setlinewidth
0 0 0 edgecolor
newpath 5987.9882 86.799 moveto
5987.3037 75.1626 5986.3852 59.5479 5985.6022 46.2368 curveto
stroke
0 0 0 edgecolor
newpath 5989.0916 45.9526 moveto
5985.0103 36.1754 lineto
5982.1037 46.3637 lineto
closepath fill
1 setlinewidth
solid
0 0 0 edgecolor
newpath 5989.0916 45.9526 moveto
5985.0103 36.1754 lineto
5982.1037 46.3637 lineto
closepath stroke
0 0 0 edgecolor
14 /Times-Roman set_font
5987 57.8 moveto 17 (No) alignedtext
grestore
% 124
gsave
1 setlinewidth
0 1 1 nodecolor
newpath 6126 36 moveto
6042 36 lineto
6042 0 lineto
6126 0 lineto
closepath stroke
0 0 0 nodecolor
14 /Times-Roman set_font
6050 14.3 moveto 68 (val = -0.066) alignedtext
grestore
% 61->124
gsave
1 setlinewidth
0 0 0 edgecolor
newpath 6007.7689 87.2067 moveto
6021.8595 74.5994 6041.353 57.1579 6057.1001 43.0683 curveto
stroke
0 0 0 edgecolor
newpath 6059.8262 45.3257 moveto
6064.9449 36.0493 lineto
6055.1587 40.1089 lineto
closepath fill
1 setlinewidth
solid
0 0 0 edgecolor
newpath 6059.8262 45.3257 moveto
6064.9449 36.0493 lineto
6055.1587 40.1089 lineto
closepath stroke
0 0 0 edgecolor
14 /Times-Roman set_font
6043 57.8 moveto 21 (Yes) alignedtext
grestore
% 125
gsave
1 setlinewidth
0 1 1 nodecolor
newpath 6224 36 moveto
6144 36 lineto
6144 0 lineto
6224 0 lineto
closepath stroke
0 0 0 nodecolor
14 /Times-Roman set_font
6152 14.3 moveto 64 (val = 0.069) alignedtext
grestore
% 62->125
gsave
1 setlinewidth
0 0 0 edgecolor
newpath 6184 86.799 moveto
6184 75.1626 6184 59.5479 6184 46.2368 curveto
stroke
0 0 0 edgecolor
newpath 6187.5001 46.1754 moveto
6184 36.1754 lineto
6180.5001 46.1755 lineto
closepath fill
1 setlinewidth
solid
0 0 0 edgecolor
newpath 6187.5001 46.1754 moveto
6184 36.1754 lineto
6180.5001 46.1755 lineto
closepath stroke
0 0 0 edgecolor
14 /Times-Roman set_font
6184 57.8 moveto 17 (No) alignedtext
grestore
% 126
gsave
1 setlinewidth
0 1 1 nodecolor
newpath 6326 36 moveto
6242 36 lineto
6242 0 lineto
6326 0 lineto
closepath stroke
0 0 0 nodecolor
14 /Times-Roman set_font
6250 14.3 moveto 68 (val = -0.071) alignedtext
grestore
% 62->126
gsave
1 setlinewidth
0 0 0 edgecolor
newpath 6203.7568 87.2067 moveto
6218.725 74.4838 6239.4854 56.8374 6256.1395 42.6814 curveto
stroke
0 0 0 edgecolor
newpath 6258.5893 45.1926 moveto
6263.942 36.0493 lineto
6254.0558 39.859 lineto
closepath fill
1 setlinewidth
solid
0 0 0 edgecolor
newpath 6258.5893 45.1926 moveto
6263.942 36.0493 lineto
6254.0558 39.859 lineto
closepath stroke
0 0 0 edgecolor
14 /Times-Roman set_font
6240 57.8 moveto 21 (Yes) alignedtext
grestore
endpage
showpage
grestore
%%PageTrailer
%%EndPage: 1
%%Trailer
end
restore
%%EOF
