I_TEG,V_TEG,V_1,V_2,V_3,f_PWM
1.049199,0.9763,1.244114,0.720809,0.835374,0
0.899767,0.702153,0.984913,1.10061,1.062062,0
0.979392,1.186515,0.665404,1.016542,0.982864,0
1.044048,0.988527,1.210367,0.727482,0.77298,0
0.907012,0.720837,0.982592,1.09286,1.114623,0
0.985297,1.140919,0.662253,0.979404,0.977377,0
1.005846,1.005283,1.194812,0.825869,0.724865,0
0.867797,0.676754,0.971006,1.057406,1.162344,0
1.002913,1.14989,0.678811,0.943431,0.989939,0
0.997799,1.012019,1.187819,0.814714,0.746167,0
0.865896,0.709376,0.99366,1.0276,1.203658,0
1.011329,1.12795,0.731086,0.933632,0.978789,0
0.962583,1.011038,1.160136,0.878761,0.686467,0
0.771197,0.744124,1.002749,0.982867,1.208826,0
1.077794,1.106869,0.698123,0.93274,0.976512,0
0.979843,0.994617,1.165571,0.942667,0.673803,0
0.790458,0.747795,1.000795,0.994535,1.204153,0
1.116906,1.065762,0.677941,0.893617,0.974928,0
0.977788,0.961765,1.111136,0.977665,0.713253,0
0.701183,0.873223,1.019105,0.97593,1.176624,0
1.162404,1.002129,0.672589,0.831354,0.944834,0
0.958026,0.911825,1.091201,1.06604,0.697201,0
0.674321,0.968668,0.977405,0.968711,1.124139,0
1.186525,0.996014,0.797797,0.734395,0.995004,0
0.94811,0.862684,1.029823,1.127902,0.719177,0
0.67662,1.009408,0.930847,0.966075,1.109375,0
1.151489,0.970745,0.896936,0.651841,1.021544,0
0.981829,0.795446,1.01259,1.180238,0.720264,0
0.682745,1.048989,0.894053,0.957926,1.052406,0
1.093507,0.966285,0.947506,0.641785,0.967,0
0.996654,0.766202,0.978833,1.167035,0.799694,0
0.695121,1.134576,0.859691,0.93641,1.078232,0
1.12311,0.957385,0.972909,0.679325,0.925801,0
0.996624,0.676749,0.960474,1.190344,0.842958,0
0.714177,1.199329,0.834923,0.971344,1.011985,0
1.082659,0.945715,1.043328,0.735608,0.972562,0
1.064526,0.683368,0.993639,1.206178,0.941838,0
0.794313,1.272046,0.871801,1.056288,1.038501,0
1.164159,1.058757,1.093164,0.768232,0.933798,0
1.095537,0.728839,1.113499,1.264349,1.071012,0
0.925669,1.384486,0.804285,1.164435,1.138524,0
1.287595,1.182557,1.416321,0.687136,1.005732,0
1.124204,0.811143,1.178401,1.294824,1.126281,0
1.035232,1.518011,0.759713,1.286788,1.187046,0
1.290483,1.262917,1.494385,0.857867,1.013073,0
1.217034,0.87765,1.301599,1.420482,1.344804,0
1.149374,1.555493,0.878955,1.334519,1.335949,0
1.398539,1.372863,1.600172,0.928102,1.042396,0
1.255789,0.878782,1.394647,1.586993,1.435308,0
1.308436,1.71177,0.941942,1.444839,1.467211,0
1.447769,1.508365,1.835861,1.089971,1.042278,0
1.245417,0.932734,1.507456,1.60135,1.620569,0
1.451888,1.747567,0.967748,1.507267,1.521887,0
1.531046,1.654225,1.878822,1.137562,1.052355,0
1.275443,0.992056,1.612537,1.658518,1.819091,0
1.635431,1.691853,0.9761,1.499592,1.634635,0
1.598044,1.743833,1.930676,1.346335,0.957102,0
1.157313,1.137421,1.776628,1.779929,1.919379,0
1.85969,1.771956,1.02654,1.453029,1.767087,0
1.775972,1.681328,1.925531,1.540979,1.056515,0
1.082437,1.282723,1.884429,1.807144,2.055391,0
2.129132,1.875781,1.15522,1.391521,1.857483,0
1.855483,1.702395,2.024545,1.830563,1.148835,0
1.134764,1.597982,1.875015,1.861464,2.18843,0
2.168447,1.925428,1.323955,1.311722,1.933761,0
1.890321,1.566177,2.100416,2.013976,1.125193,0
1.219462,1.737554,1.812219,1.905908,2.027119,0
2.208762,1.954562,1.414316,1.342235,1.98353,0
1.973694,1.559707,1.981183,2.209131,1.211598,0
1.161398,1.799957,1.880004,1.99073,2.201292,0
2.229237,2.012021,1.529198,1.222316,2.164688,0
2.071407,1.560942,2.106337,2.314386,1.19085,0
1.22713,2.109644,1.760269,2.053997,2.180107,0
2.267219,2.095096,1.802959,1.257687,2.02641,0
2.190392,1.407253,2.110548,2.425116,1.392836,0
1.263766,2.345168,1.731885,2.131848,2.231495,0
2.348754,2.160376,2.055366,1.248156,2.031338,0
2.313188,1.292452,2.207421,2.46077,1.63681,0
1.301561,2.454966,1.704237,2.223851,2.296055,0
2.376218,2.233127,2.167323,1.273343,2.089419,0
2.348296,1.391848,2.296803,2.562353,1.709679,0
1.222382,2.556199,1.802294,2.292463,2.409072,0
2.541281,2.353496,2.147062,1.342521,2.044962,0
2.356633,1.400283,2.327699,2.587468,1.928877,0
1.625332,2.642161,1.645348,2.447047,2.393041,0
2.547725,2.393121,2.405671,1.353374,1.996013,0
2.308607,1.418101,2.410245,2.652069,2.076223,0
1.637162,2.75167,1.453719,2.516798,2.45912,0
2.560992,2.475778,2.706163,1.381306,1.85427,0
2.216344,1.422207,2.475702,2.618657,2.272169,0
1.950289,2.81157,1.406448,2.561052,2.432064,0
2.57283,2.542882,2.86345,1.579081,1.770555,0
2.112908,1.435529,2.562394,2.695719,2.564766,0
2.150918,2.803185,1.415708,2.439656,2.54423,0
2.612147,2.683384,2.833812,1.721294,1.655184,0
2.111471,1.409945,2.643436,2.712629,2.719823,0
2.319789,2.864974,1.532534,2.38307,2.606879,0
2.578663,2.70593,2.864802,1.79657,1.605005,0
2.014946,1.446976,2.59045,2.615585,2.758357,0
2.318573,2.784115,1.511061,2.393945,2.588568,0
3.175282,3.239031,3.385243,1.614644,2.308672,1024
2.748387,1.688857,3.252753,3.360615,2.817051,1024
2.257571,3.543845,1.736699,3.074902,3.213029,1024
3.275577,3.338927,3.373451,1.786542,1.891482,1024
2.512416,1.655062,3.246768,3.412926,3.11381,1024
2.593433,3.461464,1.577703,3.03978,3.257924,1024
3.164174,3.273506,3.470973,1.996665,1.92131,1024
2.36666,1.651957,3.182366,3.377559,3.242949,1024
2.637041,3.392428,1.649092,2.877025,3.191888,1024
3.270642,3.360051,3.372233,2.131971,1.701094,1024
2.253944,1.762946,3.210248,3.323799,3.412443,1024
2.874143,3.375596,1.660861,2.62134,3.254982,1024
3.223047,3.194565,3.387517,2.433949,1.721792,1024
2.122876,1.830431,3.316746,3.174429,3.522245,1024
3.069117,3.378369,1.606707,2.575525,3.213741,1024
3.173231,3.104475,3.495159,2.492792,1.599436,1024
1.947057,1.809993,3.292174,3.260054,3.390341,1024
3.235321,3.318882,1.632561,2.400155,3.270911,1024
3.190027,2.846315,3.411024,2.655582,1.614355,1024
1.654492,2.22486,3.274691,3.261356,3.449778,1024
3.398214,3.272019,1.746039,2.119773,3.254258,1024
3.278781,2.5825,3.325767,3.110852,1.606729,1024
1.654854,2.429733,3.108346,3.200033,3.441117,1024
3.44173,3.326433,1.963557,2.056605,3.243679,1024
3.27928,2.371945,3.429741,3.152665,1.639207,1024
1.661984,2.596395,2.928815,3.212146,3.418917,1024
3.171267,3.386852,2.202478,1.94204,3.24939,1024
3.287551,2.344103,3.352451,3.49749,1.490491,1024
1.551189,2.745812,2.855526,3.286266,3.47363,1024
3.38859,3.295681,2.218068,1.627843,3.217885,1024
3.35647,2.262567,3.449752,3.48782,1.707938,1024
1.54861,3.086457,2.675294,3.293622,3.512128,1024
3.554132,3.39303,2.520018,1.677423,3.182015,1024
3.564047,2.036249,3.349656,3.585408,1.942838,1024
1.670571,3.487709,2.490542,3.309541,3.472238,1024
3.558955,3.340339,2.809237,1.742399,3.005963,1024
3.548177,1.868297,3.329408,3.584937,2.208718,1024
1.70923,3.568284,2.321221,3.439359,3.474294,1024
3.533915,3.453256,3.007943,1.689576,2.878923,1024
3.342407,1.739099,3.421326,3.651907,2.472609,1024
1.77329,3.76239,2.25689,3.452847,3.454946,1024
3.575908,3.395837,3.113849,1.833392,2.768374,1024
3.390864,1.696942,3.477682,3.6121,2.608516,1024
1.927253,3.625188,2.086743,3.492002,3.409497,1024
3.517465,3.359861,3.286582,1.746371,2.569421,1024
3.125585,1.787196,3.360784,3.5496,2.743612,1024
2.076342,3.656619,1.918542,3.56413,3.385535,1024
3.505018,3.477235,3.526664,1.645348,2.593535,1024
2.946543,1.769241,3.522286,3.574388,2.926267,1024
2.471136,3.803866,1.85271,3.476427,3.401395,1024
3.557194,3.569814,3.837567,1.828083,2.235997,1024
2.792983,1.697769,3.499172,3.524897,3.408706,1024
2.648291,3.727229,1.841838,3.20582,3.504154,1024
3.584087,3.648939,3.639529,2.279916,1.89059,1024
2.598763,1.778845,3.545461,3.670994,3.552904,1024
2.910594,3.690809,1.792374,3.055529,3.655743,1024
3.58991,3.558042,3.727213,2.410646,1.819702,1024
2.248444,1.885576,3.716946,3.602853,3.801589,1024
3.471425,3.780607,1.762764,2.714685,3.616276,1024
3.524183,3.186032,3.796602,2.854463,1.815591,1024
1.84139,2.312034,3.713766,3.616202,3.869471,1024
3.811974,3.532231,1.83493,2.635833,3.595678,1024
3.667056,3.195961,3.831539,2.942966,1.792184,1024
1.874706,2.351031,3.655446,3.695212,3.864542,1024
3.834963,3.695149,1.81626,2.388739,3.801852,1024
3.739307,2.932533,3.73546,3.560581,1.781685,1024
1.899448,2.797258,3.328003,3.649364,3.799266,1024
3.760039,3.625109,2.255178,2.033596,3.76167,1024
3.619951,2.612211,3.706873,3.63793,1.793596,1024
1.926905,3.116836,3.081799,3.65222,3.712899,1024
3.868459,3.548798,2.573313,1.929369,3.607941,1024
3.757288,2.419039,3.653179,3.725615,1.916128,1024
1.887532,3.335583,3.010309,3.660559,3.795347,1024
3.799159,3.720852,2.713834,1.940651,3.455238,1024
3.766082,2.222804,3.690591,3.908265,2.038313,1024
1.716715,3.666913,2.701805,3.710647,3.789371,1024
3.878523,3.657986,2.950856,1.863557,3.321237,1024
3.730461,2.021205,3.743616,3.855677,2.370515,1024
1.772393,3.861951,2.581769,3.754937,3.826111,1024
3.828408,3.763897,3.203835,1.889343,3.181932,1024
3.715855,1.928585,3.579818,3.947454,2.533179,1024
1.988453,3.837134,2.616147,3.750919,3.835156,1024
3.849219,3.691418,3.319291,1.863097,3.115239,1024
3.686515,1.928491,3.777955,3.907604,2.70415,1024
2.052667,3.879781,2.351693,3.881799,3.805267,1024
3.815049,3.861447,3.602638,1.959777,2.921011,1024
3.520349,1.924979,3.788486,3.949485,2.834991,1024
2.163301,3.945944,2.125839,3.888242,3.813656,1024
3.868975,3.796039,3.780488,1.856908,2.762712,1024
3.243364,1.97285,3.87944,3.996243,3.185298,1024
2.597607,3.923799,1.991436,3.785885,3.925455,1024
3.9811,3.752157,3.878928,1.891583,2.480411,1024
2.82472,2.291166,3.662593,3.887781,3.433425,1024
3.111041,3.777795,1.513414,3.442347,3.865857,1024
3.78335,3.872844,3.611255,2.522008,2.123638,1024
2.804193,1.903256,3.675566,3.869957,3.752412,1024
3.297451,3.503949,1.765118,3.614591,3.842676,1024
3.831981,3.884447,3.48244,2.984772,1.66952,1024
2.731378,1.949034,3.709205,3.902902,3.791189,1024
2.990588,3.926583,1.990771,3.272076,3.830278,1024
3.105823,3.040565,3.158419,1.506619,2.108103,12000
2.526599,1.599308,2.99462,3.196105,2.700913,12000
2.226973,3.177069,1.550131,2.923831,3.071674,12000
3.029475,3.114586,3.165261,1.720013,1.720769,12000
2.243418,1.452837,2.981284,3.016797,3.005331,12000
2.663466,3.176528,1.615926,2.728062,2.972941,12000
3.094829,3.015248,3.325218,2.138157,1.590763,12000
1.953877,1.589902,3.04727,3.084269,3.254491,12000
2.923447,3.130592,1.478536,2.298317,3.03936,12000
2.970553,2.697845,3.100303,2.410914,1.550957,12000
1.620048,1.958828,3.105138,2.969227,3.247269,12000
3.177058,3.043037,1.54406,2.135216,3.063333,12000
3.042782,2.49766,3.129905,2.652372,1.555249,12000
1.617848,2.262853,2.924752,3.033794,3.244995,12000
3.377882,2.968865,1.676086,1.77125,3.127056,12000
3.050554,2.163513,3.128843,3.121097,1.495149,12000
1.588763,2.567504,2.586293,3.040361,3.152018,12000
3.229255,3.049733,2.128463,1.584084,2.945425,12000
3.090442,1.856204,2.992828,3.295642,1.687645,12000
1.515179,2.973008,2.328774,3.053192,3.176812,12000
3.06844,2.994443,2.505878,1.578311,2.659076,12000
3.085999,1.562776,3.001822,3.251095,1.990549,12000
1.589003,3.28554,1.945911,3.089075,3.068662,12000
3.123108,3.012059,2.82965,1.539409,2.344038,12000
2.871982,1.526571,2.960406,3.152187,2.392734,12000
1.899645,3.228412,1.760514,3.086675,2.996774,12000
3.083677,3.037604,3.14184,1.487111,2.205098,12000
2.523854,1.564209,3.006901,3.154209,2.70683,12000
2.133937,3.199894,1.653174,2.959763,2.985588,12000
3.045784,3.073169,3.29451,1.702095,1.78621,12000
2.262159,1.560209,3.004552,3.108964,2.944965,12000
2.41963,3.142062,1.604226,2.746328,2.960714,12000
3.050598,3.0828,3.256046,1.9067,1.616056,12000
2.147595,1.522748,2.972501,3.115654,3.259137,12000
2.783933,3.167362,1.545654,2.496252,3.019314,12000
3.046626,2.784031,3.132335,2.279617,1.568339,12000
1.731604,1.770923,3.094135,3.004843,3.225022,12000
3.092698,3.119725,1.524301,2.181372,2.969648,12000
3.009265,2.570228,3.115725,2.535299,1.594363,12000
1.707494,1.982562,2.99906,2.94942,3.212965,12000
3.303688,3.022795,1.650886,1.937535,2.986123,12000
2.997147,2.351603,3.048046,2.821503,1.544788,12000
1.583176,2.484404,2.684221,3.000995,3.250884,12000
3.262916,3.0091,1.994088,1.5284,3.034144,12000
3.050233,2.016083,3.085616,3.126046,1.62866,12000
1.543519,2.856071,2.304661,2.985887,3.097421,12000
3.132894,2.98182,2.294894,1.527103,2.773105,12000
3.033691,1.817198,2.883947,3.157566,1.875089,12000
1.488186,2.973506,2.243923,2.937203,3.148429,12000
3.221228,2.955962,2.494841,1.525181,2.706565,12000
3.038153,1.571118,2.874988,3.172433,2.02705,12000
1.49806,3.161835,2.064718,2.939379,2.86728,12000
3.114183,2.816884,2.71741,1.448173,2.495706,12000
2.76261,1.520502,2.905052,3.064587,2.224137,12000
1.886547,2.987811,1.71118,3.01037,2.956221,12000
2.987214,2.859386,2.934821,1.482286,2.050098,12000
2.538131,1.588481,2.888186,2.971815,2.643141,12000
1.842058,3.129905,1.671483,2.87233,2.911591,12000
2.996691,2.836953,3.126932,1.571729,1.922421,12000
2.290117,1.566211,2.912423,3.015352,2.711417,12000
2.330575,3.142994,1.606039,2.547349,2.867035,12000
2.873804,2.86188,3.139987,2.035967,1.406713,12000
1.984834,1.674362,2.940688,2.898467,3.155208,12000
2.853965,3.001287,1.498207,2.365247,2.933574,12000
2.889822,2.657643,3.011927,2.18465,1.495083,12000
1.651903,1.944225,2.956018,2.796414,3.14598,12000
3.085007,2.992469,1.450718,2.045724,2.853518,12000
2.892399,2.461899,2.986388,2.539706,1.508042,12000
1.579,2.06186,2.890854,2.784922,3.141255,12000
3.034788,2.875011,1.55405,1.892445,2.92157,12000
2.904252,2.446672,3.018245,2.685919,1.538264,12000
1.638484,2.181475,2.727416,2.783619,3.029727,12000
2.977709,2.89095,1.642145,1.735934,2.945159,12000
2.882877,2.323335,2.951458,2.931769,1.46046,12000
1.642086,2.359684,2.494652,2.709769,3.207537,12000
3.118258,2.852078,2.069326,1.566569,2.929275,12000
2.801482,2.162895,3.016804,3.061658,1.449764,12000
1.482172,2.543072,2.573903,2.82902,2.96139,12000
3.071915,2.891886,2.028204,1.566934,2.797329,12000
2.909969,1.833328,2.924375,3.137545,1.558505,12000
1.304161,2.804624,2.322351,2.855399,2.947251,12000
3.099797,2.696045,2.343874,1.471244,2.576689,12000
2.730796,1.342854,2.796774,3.012186,1.999237,12000
1.311539,2.830868,2.190483,2.825492,2.904702,12000
2.932593,2.753323,2.352445,1.861999,2.155671,12000
2.632388,1.576398,2.786996,3.034208,2.147714,12000
2.102239,2.901379,1.610336,2.768643,2.820323,12000
2.932562,2.775017,2.994254,1.324797,2.015116,12000
2.536665,1.390215,2.689188,2.934825,2.603295,12000
2.106283,2.899889,1.494397,2.585516,2.82575,12000
2.866448,2.761978,2.871818,1.880527,1.686432,12000
2.154604,1.677412,2.677867,2.9484,2.619567,12000
2.523417,2.951811,1.47852,2.653354,2.719214,12000
2.810381,2.85991,2.833085,2.048253,1.655554,12000
1.887142,1.72587,2.720339,2.795276,2.973464,12000
2.646807,3.003013,1.518345,2.401396,2.722885,12000
2.809963,2.600138,2.810527,2.17502,1.545302,12000
1.661302,1.762383,2.812209,2.721283,3.052251,12000
3.017412,2.879758,1.375289,2.111543,2.72806,12000
2.70194,2.332218,2.952853,2.240494,1.633084,12000
4.420286,4.342336,4.387528,1.934064,2.824651,128
3.446261,2.048204,4.346234,4.461999,3.693278,128
2.900145,4.441791,2.041677,4.177963,4.308329,128
4.360039,4.3904,4.338016,2.135541,2.749536,128
3.407262,2.003866,4.321278,4.518447,3.702532,128
2.986196,4.475286,2.098427,4.008044,4.313451,128
4.370915,4.36834,4.5398,2.286738,2.3786,128
2.96908,1.919832,4.426437,4.501041,4.208765,128
3.529128,4.575692,1.94254,3.47128,4.396615,128
4.319934,4.313611,4.456368,2.685469,2.022285,128
2.913541,2.002112,4.25917,4.44069,4.329426,128
3.60038,4.430561,1.961449,3.639473,4.366421,128
4.267693,4.241571,4.325884,2.871229,2.061351,128
2.7008,2.156758,4.446265,4.333773,4.333516,128
3.810719,4.318403,2.039547,3.405278,4.276831,128
4.240181,4.040881,4.394615,3.195348,2.217021,128
2.203746,2.483877,4.464488,4.340364,4.497747,128
4.34498,4.362427,1.965662,2.881949,4.369164,128
4.335599,3.693385,4.520474,3.488931,2.006879,128
2.12916,2.645084,4.401733,4.330273,4.366703,128
4.305986,4.327035,2.159811,2.888755,4.429263,128
4.293688,3.39139,4.420412,3.85995,2.121913,128
2.138583,3.135721,3.96808,4.352173,4.433202,128
4.571636,4.345105,2.413323,2.37181,4.343362,128
4.505183,3.291815,4.419851,3.840818,1.936509,128
2.010715,3.309084,3.755314,4.408913,4.609766,128
4.402931,4.433649,2.804857,2.135113,4.430538,128
4.469811,2.967134,4.362162,4.358755,1.911571,128
1.986692,3.557666,3.411581,4.330102,4.456387,128
4.483077,4.349735,2.949252,2.028066,4.260331,128
4.435222,2.663989,4.326735,4.500553,2.230228,128
1.984302,4.143447,3.161439,4.420788,4.443396,128
4.579916,4.364438,3.265266,2.119442,3.807789,128
4.420278,2.277081,4.235415,4.267889,2.469525,128
1.908041,4.416578,2.981219,4.216864,4.391398,128
4.390371,4.332412,3.408154,1.948762,3.615259,128
4.483252,2.117587,4.205912,4.436429,2.678312,128
1.922433,4.324582,2.792579,4.339098,4.358768,128
4.354873,4.142192,3.537112,1.942842,3.731068,128
4.320633,1.965342,4.296586,4.493881,2.559515,128
1.996354,4.371296,2.605304,4.285464,4.393948,128
4.249875,4.221184,3.588857,2.053166,3.487465,128
4.2436,2.078812,4.256694,4.452643,2.86058,128
2.246617,4.272172,2.583608,4.292566,4.286154,128
4.316831,4.276085,3.848122,1.92671,3.116018,128
3.691522,1.914507,4.211332,4.280682,3.261265,128
2.416422,4.34734,2.181926,4.357425,4.175741,128
4.261033,4.256156,4.296905,1.938735,2.881853,128
3.406779,2.058363,4.26184,4.393267,3.496674,128
2.783546,4.413197,2.000341,4.054027,4.153313,128
4.279609,4.311023,4.369808,2.174741,2.414232,128
3.092419,1.924971,4.203164,4.14905,3.978318,128
3.171116,4.274181,2.008286,3.691821,4.090314,128
4.044752,4.185669,4.218483,2.496539,2.005288,128
2.726833,1.987858,4.046489,4.127338,4.222557,128
3.541749,4.161927,2.013936,3.259047,4.168109,128
4.10444,3.734896,4.245532,2.986322,1.946945,128
2.116916,2.291365,4.103997,4.044929,4.176498,128
4.100508,4.019988,1.706638,2.673186,4.088263,128
4.076134,3.39741,4.282357,3.439144,1.942838,128
2.01743,2.894318,3.805979,3.986517,4.039365,128
4.190115,4.075493,2.070287,2.584431,3.985925,128
3.981533,2.982496,4.045575,3.708569,1.771272,128
1.918668,3.026768,3.753662,3.947144,4.029614,128
4.064095,4.008108,2.147305,2.200646,4.0254,128
4.00418,3.027726,4.03875,3.606604,1.93795,128
1.826978,2.983191,3.456531,3.927574,4.104636,128
4.145664,3.884229,2.175409,1.965985,4.068684,128
3.895632,2.482654,3.985476,4.061448,1.774784,128
1.834488,3.520621,3.115002,3.915659,4.081825,128
4.007787,3.793709,2.802755,1.849252,3.728236,128
3.960619,2.337849,3.916259,4.038882,2.156769,128
1.956536,3.69748,3.010408,3.882448,4.081178,128
3.965331,3.89363,2.771239,1.862764,3.742426,128
3.960217,2.256377,3.900752,3.93829,2.262307,128
1.956411,3.703276,2.886409,3.855469,3.975955,128
4.00833,3.826429,2.978603,1.867946,3.508634,128
3.866208,2.024093,3.818159,3.938451,2.518148,128
1.909999,3.826277,2.759957,3.851572,3.968956,128
3.922908,3.829027,3.209143,1.821102,3.155167,128
3.903251,1.979304,3.755229,3.897845,2.467614,128
1.971671,3.976241,2.45352,3.819072,3.781404,128
3.743759,3.699823,3.286189,1.972472,2.950826,128
3.449235,1.975538,3.686433,3.761283,2.580637,128
1.993596,3.899463,2.04616,3.758326,3.653955,128
3.79449,3.654279,3.6213,1.694451,2.632744,128
3.133701,1.892527,3.668132,3.680522,3.016367,128
2.421083,3.678076,1.837479,3.755048,3.607091,128
3.68011,3.676863,3.800996,1.759265,2.44745,128
2.833589,1.754149,3.650209,3.688646,3.166907,128
2.791825,3.758179,1.928148,3.284777,3.629934,128
3.540907,3.627455,3.70084,2.173947,2.119036,128
2.698298,1.767202,3.573677,3.774486,3.386218,128
2.979037,3.705978,1.803584,3.079194,3.632083,128
3.522668,3.762506,3.778864,2.317522,1.860702,128
2.528628,1.767102,3.65385,3.70371,3.613604,128
3.211193,3.557367,1.754582,2.979857,3.618677,128
3.566827,3.483319,3.594091,2.516379,1.848958,128
2.210037,1.922909,3.682402,3.571595,3.676538,128
3.437319,3.644871,1.776095,2.586121,3.515109,128
3.984135,3.946116,4.049709,1.742661,2.519437,15000
3.011067,1.777948,3.914342,4.00208,3.440773,15000
2.82809,4.021166,1.863405,3.65468,3.885547,15000
3.947451,4.007728,4.04,2.152771,2.161506,15000
2.772417,1.78028,3.980812,4.043051,3.799602,15000
3.119456,4.006366,1.878862,3.435341,3.945781,15000
3.972147,3.994875,4.122609,2.463486,1.976411,15000
2.570973,1.854373,4.032665,4.007534,4.049077,15000
3.508767,4.130698,1.886017,3.195901,3.951042,15000
4.022831,3.76032,4.08627,2.853595,1.913733,15000
2.316344,2.138735,4.087899,4.043993,4.199987,15000
3.722351,4.112234,1.890627,2.931678,4.084288,15000
4.102327,3.569576,4.115297,3.204104,1.970822,15000
2.005227,2.56493,4.112743,4.042439,4.201349,15000
4.138684,4.158856,1.991971,2.470372,4.106111,15000
4.100026,3.111998,4.129961,3.651083,1.920515,15000
1.982711,3.023878,3.737814,4.048394,4.243278,15000
4.224373,4.184425,2.388954,2.062196,4.224464,15000
4.213865,2.74249,4.226423,4.183158,1.874811,15000
1.905895,3.526959,3.391803,4.135575,4.238118,15000
4.310478,4.17886,2.864724,2.041627,3.867618,15000
4.255209,2.398007,4.172969,4.20632,2.23225,15000
1.958325,3.916709,2.999672,4.074172,4.320422,15000
4.296418,4.195654,3.29102,2.002725,3.634476,15000
4.134962,2.053243,4.192863,4.327578,2.746995,15000
2.081283,4.286775,2.564924,4.298075,4.234221,15000
4.273185,4.281991,3.769281,1.969111,3.136376,15000
3.790482,1.996327,4.169912,4.337151,3.168339,15000
2.450326,4.289567,2.343221,4.38542,4.172749,15000
4.325842,4.326333,4.116732,1.914983,2.964703,15000
3.603351,2.003235,4.312014,4.379202,3.398174,15000
2.649626,4.414432,2.097283,4.282523,4.207759,15000
4.222959,4.347181,4.411178,2.056476,2.642833,15000
3.379943,1.931938,4.341033,4.351162,3.742009,15000
3.108761,4.383749,2.019585,3.936406,4.31356,15000
4.362491,4.34761,4.426045,2.477089,2.190662,15000
2.901615,1.992037,4.393712,4.399819,4.266976,15000
3.641844,4.325687,2.040936,3.461515,4.373828,15000
4.206341,4.324286,4.46373,2.834707,2.135913,15000
2.723511,2.033415,4.397983,4.319764,4.377676,15000
3.686963,4.263466,2.000634,3.561605,4.415955,15000
4.301738,4.190555,4.393926,2.940795,2.107898,15000
2.466973,2.223385,4.357952,4.368877,4.445414,15000
4.053436,4.463154,1.884482,3.148707,4.362331,15000
4.355953,3.655344,4.492948,3.500654,2.050293,15000
2.143922,2.896789,4.323767,4.340837,4.377672,15000
4.465851,4.339039,2.188304,2.656383,4.427159,15000
4.421478,3.325859,4.386308,3.987181,1.969573,15000
2.11416,3.306243,3.876883,4.399578,4.477349,15000
4.396883,4.248956,2.607753,2.294236,4.488596,15000
4.305078,3.107985,4.475514,4.28901,1.955321,15000
2.028748,3.570868,3.663989,4.40494,4.383954,15000
4.447488,4.421958,2.796302,2.15761,4.284842,15000
4.434051,2.722073,4.491172,4.375217,2.225984,15000
2.062465,3.999293,3.211226,4.423544,4.52718,15000
4.46512,4.378335,3.402631,2.179348,3.867849,15000
4.510459,2.167485,4.38441,4.493746,2.656998,15000
2.073342,4.413428,2.885848,4.412458,4.488307,15000
4.412714,4.413675,3.813743,2.042321,3.475139,15000
4.030142,2.114047,4.447626,4.488019,3.184546,15000
2.520366,4.509081,2.252534,4.566205,4.415946,15000
4.516669,4.289633,4.274397,2.08778,3.153827,15000
3.735381,2.098665,4.462613,4.497291,3.577764,15000
3.004694,4.527245,2.086282,4.228527,4.395486,15000
4.385163,4.569134,4.465008,2.324137,2.745634,15000
3.25645,2.037822,4.495546,4.442978,4.116399,15000
3.401309,4.507999,2.155156,3.808256,4.395633,15000
4.311558,4.599249,4.457086,2.887695,2.172289,15000
2.849432,2.224797,4.308976,4.491941,4.451323,15000
3.989545,4.368241,2.027826,3.506254,4.523218,15000
4.425657,4.237964,4.460635,3.116984,2.245737,15000
2.391781,2.560288,4.539385,4.508141,4.4363,15000
4.226565,4.367091,2.023971,3.331941,4.432808,15000
4.458651,3.955218,4.457107,3.365994,2.181332,15000
2.215526,2.72281,4.51926,4.425118,4.607576,15000
4.492855,4.443265,2.14162,2.862274,4.562289,15000
4.507251,3.443922,4.513389,3.874327,2.130377,15000
2.219664,3.262488,4.065165,4.458257,4.44071,15000
4.473384,4.463274,2.530079,2.412683,4.596658,15000
4.522455,3.031311,4.513265,4.394686,2.050602,15000
2.120582,3.609425,3.714081,4.47454,4.513682,15000
4.560028,4.428448,2.933876,2.267634,4.365784,15000
4.489266,2.863417,4.563098,4.442114,2.173976,15000
2.107842,3.977696,3.627736,4.4677,4.422087,15000
4.580987,4.461101,3.134839,2.239707,4.171361,15000
4.497389,2.497335,4.484383,4.549302,2.553732,15000
2.136832,4.138851,3.252905,4.444513,4.549463,15000
4.574342,4.543126,3.422263,2.187574,3.867612,15000
4.485264,2.309081,4.40317,4.591013,2.740027,15000
2.176582,4.522652,2.819911,4.542372,4.496671,15000
4.57245,4.491946,3.900149,2.211101,3.460227,15000
4.202296,2.223612,4.556371,4.536805,3.146139,15000
2.494061,4.53157,2.452411,4.652573,4.517903,15000
4.513121,4.47038,4.299171,2.097598,3.151315,15000
3.750616,2.17092,4.489087,4.586432,3.654643,15000
3.039169,4.525859,2.224464,4.262421,4.530837,15000
4.450037,4.606512,4.601968,2.418284,2.66688,15000
3.653915,2.136398,4.319692,4.554879,4.090907,15000
3.134847,4.530804,2.22287,4.307988,4.499255,15000
4.533166,4.621472,4.562358,2.439507,2.509316,15000
3.367917,3.294199,3.403668,1.717754,2.305791,2048
2.609932,1.593706,3.315652,3.489219,3.024542,2048
2.388684,3.436493,1.743646,3.142863,3.28822,2048
3.280192,3.356669,3.553937,1.952507,1.900559,2048
2.446423,1.581134,3.323212,3.422455,3.328536,2048
2.75218,3.433557,1.708716,2.864288,3.280789,2048
3.256584,3.276667,3.511009,2.138773,1.767175,2048
2.229255,1.752327,3.267286,3.307827,3.449109,2048
3.013955,3.476799,1.656013,2.725682,3.312498,2048
3.261224,3.204811,3.421836,2.44807,1.65601,2048
2.064564,1.744238,3.388235,3.288644,3.457847,2048
3.116864,3.408329,1.731533,2.65558,3.239512,2048
3.299059,3.197007,3.411096,2.479878,1.713577,2048
1.816805,1.8988,3.35205,3.300969,3.51285,2048
3.190397,3.333889,1.621726,2.451099,3.296199,2048
3.369128,2.790582,3.471833,2.762605,1.576697,2048
1.683593,2.142098,3.31678,3.294193,3.575809,2048
3.399916,3.279777,1.675813,2.162102,3.320132,2048
3.329392,2.725354,3.380483,2.980654,1.666627,2048
1.655353,2.371204,3.13583,3.246266,3.537907,2048
3.495137,3.362777,1.995032,1.844238,3.364883,2048
3.312999,2.524408,3.369878,3.31369,1.615957,2048
1.688461,2.584838,2.93861,3.268702,3.411678,2048
3.492714,3.28766,2.034012,1.790868,3.434143,2048
3.202887,2.345298,3.476009,3.397374,1.654972,2048
1.79952,2.680089,2.832526,3.292849,3.454736,2048
3.466822,3.26453,2.182723,1.612627,3.381693,2048
3.347297,2.099659,3.305815,3.481783,1.747291,2048
1.569283,2.916958,2.705381,3.262485,3.479439,2048
3.464497,3.178727,2.494659,1.677366,3.310709,2048
3.332012,2.235168,3.340063,3.372506,1.789677,2048
1.667731,2.999908,2.703374,3.271027,3.408807,2048
3.538944,3.189949,2.464442,1.580496,3.191497,2048
3.403696,1.986073,3.359712,3.466075,1.81193,2048
1.635117,2.995339,2.615476,3.293243,3.433123,2048
3.498979,3.263651,2.525854,1.705176,3.090885,2048
3.452006,1.89007,3.280109,3.46808,1.934215,2048
1.530532,3.316406,2.423385,3.302896,3.367939,2048
3.369546,3.27484,2.841844,1.652074,2.865186,2048
3.334037,1.78407,3.262452,3.392869,2.307853,2048
1.768625,3.303813,2.216185,3.255421,3.399396,2048
3.312678,3.270996,2.859694,1.549188,2.965773,2048
3.36481,1.638334,3.236166,3.544581,2.165554,2048
1.772006,3.453105,2.056689,3.309126,3.357382,2048
3.395657,3.263568,3.105591,1.645961,2.568037,2048
3.099717,1.659186,3.293179,3.505979,2.508536,2048
2.011002,3.474277,1.843738,3.398856,3.350081,2048
3.339027,3.320154,3.293566,1.581227,2.380402,2048
2.88192,1.739536,3.272925,3.447537,2.801444,2048
2.196661,3.51282,1.652627,3.290319,3.28131,2048
3.290841,3.335529,3.543624,1.65382,2.086494,2048
2.624731,1.607324,3.265839,3.408979,3.113103,2048
2.415317,3.526685,1.714092,3.041963,3.31343,2048
3.255682,3.41787,3.494062,2.018313,1.701282,2048
2.34171,1.559132,3.312245,3.398049,3.373334,2048
2.970524,3.354043,1.645985,2.605535,3.188545,2048
2.97843,3.017989,3.359562,2.172836,1.659285,2048
2.048312,1.811423,3.213566,3.154363,2.959912,2048
2.782576,3.182745,1.587278,2.279801,3.06958,2048
3.023923,2.902648,3.165808,2.375947,1.516846,2048
1.961122,1.861023,3.077803,3.159749,3.156981,2048
3.12884,3.217606,1.553918,2.346666,3.006447,2048
3.226261,2.856564,3.236179,2.580367,1.640105,2048
1.73265,2.021622,3.338224,3.181677,3.475404,2048
3.240654,3.216786,1.581266,2.350565,3.179982,2048
3.210323,2.70447,3.323564,2.668986,1.724816,2048
1.592417,2.18621,3.307462,3.170892,3.262231,2048
3.336962,3.292413,1.602139,2.274491,3.098156,2048
3.146339,2.89686,3.283324,2.658759,1.637849,2048
1.663395,2.154852,3.211528,3.209719,3.451007,2048
3.355183,3.289619,1.692903,2.079064,3.211677,2048
3.136487,2.561836,3.30658,2.913374,1.573364,2048
1.658514,2.401952,3.048628,3.15027,3.232759,2048
3.362201,3.213273,2.031999,1.853054,3.245094,2048
3.200714,2.375312,3.29801,3.147393,1.737697,2048
1.759279,2.671123,2.815559,3.13989,3.206949,2048
3.356818,3.229453,2.00744,1.767155,3.284033,2048
3.156329,2.321841,3.33533,3.255991,1.602345,2048
1.622168,2.859313,2.585038,3.222034,3.18983,2048
3.451265,3.023694,2.220367,1.728661,2.952924,2048
2.956139,2.080342,3.08785,3.164203,1.934432,2048
1.558141,2.867316,2.747948,3.081963,3.024644,2048
3.195073,3.077892,2.359761,1.709391,2.828555,2048
3.091562,1.636676,2.991354,3.299742,2.040192,2048
1.832063,3.010719,2.181102,3.005229,3.239135,2048
3.275897,3.067139,2.784043,1.722809,2.702167,2048
2.988937,1.787942,3.159854,3.307874,2.281548,2048
1.723231,3.467758,1.962345,3.068984,3.055739,2048
3.020974,3.086669,3.006241,1.673246,2.470115,2048
2.987916,1.660741,3.073501,3.428374,2.391313,2048
2.034015,3.097717,1.790629,3.122877,3.139813,2048
3.106846,3.053317,3.25444,1.310748,2.445049,2048
2.702404,1.579879,3.026542,3.303125,2.60473,2048
2.126921,3.314838,1.600388,3.225752,3.105991,2048
3.252902,3.125648,3.060118,1.764409,1.960831,2048
2.319818,1.81977,3.035984,3.197142,3.055989,2048
2.30105,3.199178,1.560757,2.953584,3.017024,2048
2.869097,2.933903,3.200625,1.960515,1.814506,2048
2.067465,1.68519,2.924154,3.132318,2.902485,2048
2.585131,3.004622,1.729259,2.412494,2.869119,2048
3.832954,3.867407,3.976394,1.837489,2.577308,256
3.090698,1.785115,3.877229,3.889208,3.365266,256
2.767474,3.971086,1.845898,3.516675,3.786947,256
3.701359,3.919668,3.977216,2.096532,2.117571,256
2.705726,1.83902,3.845491,3.952081,3.770673,256
3.100781,3.866893,1.825319,3.132698,3.818182,256
3.730782,3.936285,4.04805,2.572147,1.881631,256
2.57858,1.814075,3.711366,3.975883,3.897554,256
3.25253,3.893595,1.742328,3.142705,3.829919,256
3.817078,3.795717,3.973003,2.578206,1.811399,256
2.252146,2.028737,3.845958,3.855051,3.933706,256
3.384167,3.792147,1.774048,2.950527,3.78446,256
3.699607,3.710159,3.973135,2.743695,1.827577,256
2.185862,2.104056,3.934415,3.821475,3.925625,256
3.659725,3.726962,1.834913,2.942043,3.882556,256
3.767236,3.439923,3.94727,3.023717,1.795282,256
2.040016,2.28371,3.847886,3.846785,3.903688,256
3.928693,3.893041,1.821493,2.622938,3.895201,256
3.776989,2.995466,3.915792,3.269021,1.732771,256
1.940238,2.72766,3.673553,3.779609,3.952161,256
3.998831,3.907676,2.089169,2.171971,3.888918,256
3.85342,2.855455,3.887969,3.590488,1.777719,256
1.827849,2.95269,3.355713,3.767129,3.995137,256
3.868694,3.746373,2.445861,1.930123,3.979241,256
3.735608,2.596262,3.846847,3.799419,1.848063,256
1.807555,3.075748,3.299904,3.737051,3.972981,256
3.89755,3.853956,2.468253,1.854224,3.808853,256
3.818514,2.54276,3.84019,3.98376,1.8574,256
1.869849,3.378901,2.984871,3.844803,3.96444,256
3.954292,3.76772,2.753195,1.889967,3.465221,256
3.765243,2.358583,3.797399,3.877333,2.126893,256
1.869474,3.478824,2.977643,3.687224,3.904325,256
3.894357,3.708165,2.8322,1.987087,3.540958,256
3.915121,2.114518,3.869636,3.997729,2.168442,256
1.735254,3.785704,2.829028,3.901829,3.825657,256
3.926372,3.676981,3.001373,1.90527,3.345227,256
3.828694,1.844193,3.857349,3.97094,2.425991,256
1.865782,4.044861,2.583043,3.89626,3.828755,256
3.846138,3.870297,3.295594,1.849858,3.153523,256
3.772269,1.918799,3.851895,3.967175,2.622854,256
1.994862,4.004011,2.284211,3.900677,3.91704,256
3.890973,3.840218,3.530631,1.79083,2.882767,256
3.564619,1.802588,3.874209,3.900294,2.894535,256
2.204878,3.906815,2.22038,3.9172,3.750374,256
3.778531,3.866133,3.763597,1.776184,2.780592,256
3.18543,1.869609,3.83729,3.931104,3.186827,256
2.444392,3.884967,1.846121,3.773762,3.743127,256
3.829629,3.787985,3.914708,1.94079,2.298833,256
2.983234,1.831494,3.809342,3.79335,3.497544,256
2.871613,3.913748,1.878107,3.429656,3.794263,256
3.815344,3.863372,3.919728,2.217543,2.023751,256
2.742638,1.844719,3.660461,3.909327,3.786238,256
3.026829,3.897401,1.823862,3.385908,3.77392,256
3.754379,3.928442,3.935023,2.372842,2.002023,256
2.634089,1.784495,3.712288,3.828488,3.953942,256
3.235365,3.82746,1.800995,3.197427,3.850029,256
3.782993,3.728884,3.996963,2.495759,1.872686,256
2.372433,1.986753,3.790985,3.872751,3.988439,256
3.517515,3.871831,1.792628,2.835326,3.820767,256
3.766038,3.448555,3.899095,2.940035,1.927917,256
1.969473,2.323707,3.988335,3.838304,4.02079,256
3.972452,3.757764,1.824344,2.647009,3.800272,256
3.889606,3.095205,3.850382,3.245843,1.85181,256
1.90479,2.676327,3.718979,3.822815,4.047572,256
3.967347,3.744941,2.065023,2.375961,3.877611,256
3.749188,3.024292,3.929071,3.516826,1.883713,256
1.830664,2.8392,3.619752,3.819052,3.951705,256
3.993812,3.787708,2.076287,2.169498,3.909769,256
3.7998,2.917335,3.90323,3.685087,1.763264,256
1.965367,2.97433,3.461698,3.788475,3.940641,256
4.00911,3.877847,2.293632,2.009821,3.840841,256
3.758228,2.734092,3.960425,3.829281,1.792235,256
1.846926,3.231634,3.198676,3.873947,3.830099,256
3.875417,3.737195,2.484263,2.001619,3.616008,256
3.7387,2.468931,3.718085,3.944899,1.912217,256
1.888129,3.590747,2.692329,3.731469,3.780295,256
3.921697,3.733574,2.904805,1.859089,3.269136,256
3.815662,2.089412,3.652667,3.845865,2.346555,256
1.815482,3.681197,2.68856,3.724034,3.780673,256
3.840197,3.75374,3.079641,1.897424,3.213573,256
3.770724,1.915524,3.731924,3.856801,2.400524,256
1.898937,3.947465,2.48198,3.758041,3.749917,256
3.857954,3.716409,3.301736,1.893511,3.003009,256
3.491805,1.897408,3.760762,3.941082,2.869047,256
2.251007,3.764061,2.180082,3.795077,3.769601,256
3.794612,3.70765,3.674894,1.930404,2.835466,256
3.347603,1.849922,3.790073,3.886057,2.873481,256
2.280173,3.877816,2.055074,3.813868,3.676531,256
3.805907,3.743774,3.873334,1.829114,2.713508,256
3.150743,1.957422,3.733185,3.831056,3.137683,256
2.587822,3.807408,1.964652,3.87501,3.587944,256
3.867932,3.70551,3.878719,1.828311,2.58071,256
3.058398,1.848718,3.750146,3.880236,3.281882,256
2.670653,3.894542,1.920958,3.593274,3.79222,256
3.791912,3.934327,3.918799,2.166713,2.094396,256
2.754441,1.7736,3.820729,3.812255,3.726389,256
3.169766,3.897225,1.826077,3.400433,3.69402,256
3.731251,3.86658,3.97356,2.332388,2.000573,256
2.529745,1.814991,3.82146,3.895881,3.915089,256
3.272666,3.908718,1.906145,3.260472,3.650781,256
4.558501,4.590351,4.373926,2.11962,3.194735,4096
3.82588,2.245204,4.488111,4.589032,3.81302,4096
3.037523,4.578638,2.405773,4.598182,4.469275,4096
4.544936,4.675137,4.450137,2.284298,3.02979,4096
3.672046,2.299023,4.516059,4.62687,3.956925,4096
3.177523,4.586025,2.340616,4.305458,4.491172,4096
4.528212,4.639316,4.615449,2.522334,2.729663,4096
3.339612,2.23408,4.594061,4.602754,4.25456,4096
3.577372,4.483673,2.227086,4.040859,4.520016,4096
4.423945,4.704591,4.654892,2.721857,2.577325,4096
3.290638,2.212626,4.578351,4.60675,4.272305,4096
3.685342,4.522097,2.309254,3.922255,4.492145,4096
4.509216,4.727488,4.594556,2.827649,2.336141,4096
2.995221,2.186366,4.597589,4.580751,4.517853,4096
3.844726,4.498382,2.318597,3.649265,4.635874,4096
4.57016,4.362656,4.568904,3.179582,2.285557,4096
2.731821,2.532026,4.594108,4.468821,4.4996,4096
4.24932,4.510945,2.223934,3.524908,4.538678,4096
4.524712,4.095619,4.626001,3.570876,2.287094,4096
2.430779,2.73062,4.690658,4.553567,4.539027,4096
4.46118,4.665183,2.174319,3.235531,4.496035,4096
4.627491,3.768594,4.590782,3.724845,2.196667,4096
2.334692,3.00631,4.374712,4.554635,4.660115,4096
4.645841,4.567898,2.438286,2.728925,4.630181,4096
4.618994,3.396549,4.575632,4.171343,2.184503,4096
2.248806,3.684255,3.935051,4.587156,4.659636,4096
4.669958,4.546857,2.909418,2.301729,4.551577,4096
4.590415,2.87429,4.646507,4.592947,2.29092,4096
2.241645,3.984922,3.475536,4.649429,4.611415,4096
4.637153,4.497886,3.461388,2.302535,4.10008,4096
4.725117,2.746763,4.532688,4.575969,2.581984,4096
2.153308,4.172639,3.430852,4.514454,4.588887,4096
4.578922,4.626091,3.531234,2.314442,4.005723,4096
4.703793,2.398578,4.4037,4.531044,2.88557,4096
2.232554,4.524436,3.239637,4.432385,4.629088,4096
4.50339,4.456479,3.657989,2.188497,4.061982,4096
4.712591,2.484513,4.397403,4.554589,2.774019,4096
2.155859,4.3568,3.331612,4.641123,4.516694,4096
4.664488,4.565226,3.707628,2.292307,3.844081,4096
4.666968,2.298213,4.485437,4.540498,2.998931,4096
2.156847,4.528387,3.053083,4.571278,4.568347,4096
4.658501,4.465795,3.925837,2.207727,3.714351,4096
4.328846,2.344011,4.569702,4.424166,3.203695,4096
2.399967,4.501633,2.808883,4.611334,4.532267,4096
4.523148,4.523807,3.829205,2.197655,3.683171,4096
4.275378,2.289921,4.514578,4.530785,3.212627,4096
2.576586,4.502204,2.706927,4.536934,4.449746,4096
4.597985,4.572766,4.11875,2.127794,3.409657,4096
4.135796,2.205715,4.609543,4.486031,3.421707,4096
2.647633,4.507756,2.342075,4.625443,4.438166,4096
4.550688,4.481913,4.469176,2.042239,3.076604,4096
3.69088,2.238184,4.555752,4.472307,3.768553,4096
2.945785,4.507516,2.129235,4.390021,4.466332,4096
4.41038,4.510128,4.423621,2.369785,2.764625,4096
3.597235,2.048523,4.491717,4.408962,4.028868,4096
3.252236,4.500638,2.307565,4.021127,4.525137,4096
4.400839,4.640432,4.624939,2.566669,2.4084,4096
3.39584,2.138676,4.643754,4.651208,4.040127,4096
3.141905,4.446803,2.080137,4.052596,4.424634,4096
4.621117,4.608717,4.522724,2.812687,2.442936,4096
2.9339,1.894042,4.418059,4.353479,4.550707,4096
3.773647,4.467551,2.349877,3.706818,4.49692,4096
4.208407,4.529965,4.69267,2.751832,2.075497,4096
2.928174,2.330417,4.629545,4.541495,4.55491,4096
3.792153,4.320987,1.975354,3.505196,4.388511,4096
4.353995,4.410976,4.601056,2.921938,2.213853,4096
2.592084,2.214424,4.539337,4.402456,4.22723,4096
3.933745,4.601807,2.027484,3.330275,4.512928,4096
4.290122,3.910745,4.535292,3.25948,1.812736,4096
2.483152,2.671437,4.631489,4.300879,4.400144,4096
4.331301,4.289961,1.861025,2.85517,4.36041,4096
4.502342,3.696615,4.452433,3.627522,2.027841,4096
1.951052,2.777617,4.34746,4.393159,4.438954,4096
4.425421,4.598914,2.203914,2.673734,4.534748,4096
4.328793,3.527978,4.36241,3.797754,2.054674,4096
2.081884,3.056739,4.028075,4.355889,4.500082,4096
4.358487,4.360168,2.409048,2.428757,4.427327,4096
4.334324,3.157869,4.290305,4.191344,2.019434,4096
2.035891,3.359567,3.878893,4.362589,4.493431,4096
4.438851,4.420659,2.607565,2.238607,4.424821,4096
4.347582,2.904254,4.347191,4.286454,2.138917,4096
2.027363,3.477467,3.56595,4.387012,4.345426,4096
4.354272,4.371245,3.010732,2.171245,4.09847,4096
4.380365,2.706862,4.344028,4.407136,2.152079,4096
2.195165,3.844961,3.658684,4.321211,4.314812,4096
4.494336,4.3767,3.083829,2.062018,3.995957,4096
4.317589,2.535555,4.248075,4.317772,2.089218,4096
2.044807,3.857772,3.29874,4.393241,4.365344,4096
4.399399,4.307804,3.265282,2.195298,3.775104,4096
4.503155,2.271577,4.242718,4.408747,2.618744,4096
2.005286,4.228617,2.766659,4.304631,4.463092,4096
4.299076,4.36333,3.591794,2.017003,3.497627,4096
4.017214,2.219624,4.215966,4.232372,3.153336,4096
2.385547,4.379371,2.445753,4.271134,4.272755,4096
4.328866,4.214426,3.990425,1.979193,2.967229,4096
3.777738,2.068805,4.244586,4.224037,3.251517,4096
2.626166,4.317151,1.982496,4.269563,4.288151,4096
4.344196,4.202415,4.252045,2.04327,2.722523,4096
3.528757,2.076615,4.217911,4.181147,3.531216,4096
2.906211,4.365696,2.003779,4.047844,4.146404,4096
4.595666,4.691571,4.558768,2.318652,3.326045,512
3.94756,2.363483,4.622778,4.663453,3.838767,512
3.176628,4.526517,2.455542,4.701277,4.634319,512
4.703804,4.731092,4.661588,2.322244,3.138124,512
3.731224,2.325535,4.744391,4.662392,4.002851,512
3.310149,4.688639,2.351981,4.309979,4.688758,512
4.646719,4.827115,4.636155,2.738168,2.618737,512
3.340358,2.331639,4.642527,4.632021,4.499958,512
3.805508,4.570034,2.357607,4.053408,4.694022,512
4.589719,4.770904,4.657963,3.063049,2.466638,512
3.276592,2.292673,4.687612,4.645968,4.500958,512
3.9052,4.63863,2.433168,3.890037,4.67786,512
4.56822,4.499697,4.664319,3.24327,2.443145,512
2.856001,2.535049,4.661648,4.660618,4.682646,512
4.300262,4.690524,2.353063,3.650137,4.588978,512
4.66323,4.170813,4.639928,3.490434,2.410258,512
2.581807,2.906715,4.735699,4.522836,4.685209,512
4.590727,4.703646,2.29015,3.221658,4.70033,512
4.686938,3.8421,4.647677,3.973459,2.300289,512
2.442759,3.320847,4.506102,4.547827,4.645192,512
4.544891,4.705897,2.592839,2.943351,4.718509,512
4.650101,3.674988,4.618216,4.188213,2.364375,512
2.382258,3.528904,4.196468,4.63475,4.665657,512
4.61584,4.676964,2.899935,2.560734,4.748481,512
4.768938,3.281055,4.616608,4.616252,2.234833,512
2.367289,3.874932,3.940458,4.594553,4.61036,512
4.493458,4.584538,3.098873,2.439604,4.81665,512
4.699512,3.247734,4.606872,4.593572,2.292262,512
2.392781,3.946162,3.790148,4.661891,4.669386,512
4.624332,4.703633,3.38603,2.465581,4.360621,512
4.713664,2.755344,4.598446,4.658663,2.718802,512
2.241868,4.417416,3.330845,4.647983,4.717245,512
4.735151,4.626472,3.733214,2.409578,3.997267,512
4.765375,2.582972,4.583776,4.633425,3.095164,512
2.28058,4.472417,3.32472,4.719482,4.581583,512
4.598169,4.687522,3.68436,2.440203,3.939117,512
4.575358,2.451923,4.717295,4.637539,3.123881,512
2.487156,4.672546,3.022616,4.728072,4.364257,512
4.630749,4.590167,3.903268,2.305647,3.767825,512
4.438462,2.481422,4.707406,4.603174,3.236038,512
2.605563,4.621537,2.908126,4.745756,4.541334,512
4.564751,4.624458,4.076357,2.249231,3.6888,512
4.565985,2.420113,4.529858,4.508642,3.426708,512
2.373737,4.614455,2.902632,4.719803,4.587301,512
4.667103,4.666151,4.217958,2.295531,3.466107,512
4.085879,2.403472,4.673693,4.641752,3.55058,512
2.821717,4.583678,2.41894,4.586338,4.536914,512
4.644167,4.67925,4.578953,2.212998,3.010616,512
3.827819,2.256553,4.563894,4.603771,3.884866,512
3.218884,4.573959,2.388038,4.589976,4.53283,512
4.663734,4.656907,4.572363,2.416594,2.892942,512
3.751173,2.298546,4.545129,4.637095,4.050331,512
3.242626,4.559615,2.375746,4.363238,4.643519,512
4.50628,4.612143,4.528319,2.46115,2.819518,512
3.513032,2.248174,4.646096,4.592651,4.222828,512
3.425059,4.572746,2.380021,4.196829,4.596427,512
4.632964,4.701721,4.634429,2.654636,2.572247,512
3.388578,2.184166,4.524564,4.630278,4.264976,512
3.561145,4.639441,2.298049,3.977736,4.614967,512
4.537499,4.62855,4.676666,2.960931,2.41283,512
3.114392,2.222129,4.512269,4.610823,4.453257,512
3.761352,4.631193,2.288075,3.808342,4.536382,512
4.517718,4.475973,4.573553,3.049656,2.372686,512
2.901459,2.434603,4.621725,4.561643,4.572098,512
3.996788,4.650032,2.205253,3.655746,4.5701,512
4.569674,4.186415,4.578507,3.301764,2.304108,512
2.482992,2.782162,4.719598,4.531211,4.618497,512
4.314845,4.56576,2.238364,3.332916,4.500712,512
4.637241,4.082938,4.470665,3.641805,2.261082,512
2.356267,2.862609,4.685522,4.603122,4.601837,512
4.427945,4.619178,2.208815,3.125531,4.599563,512
4.519725,3.739604,4.590111,3.763164,2.187712,512
2.39579,3.043901,4.484625,4.549497,4.602241,512
4.299475,4.540546,2.444772,2.982406,4.543271,512
4.496191,3.668038,4.627757,3.855277,2.161572,512
2.343052,3.209579,4.35871,4.437192,4.680257,512
4.535969,4.544077,2.459021,3.009397,4.536194,512
4.584933,3.533658,4.544236,3.939082,2.224719,512
2.329949,3.290449,4.240487,4.523175,4.733168,512
4.586616,4.461737,2.551884,2.505129,4.645417,512
4.559272,3.300273,4.498605,4.404673,2.253986,512
2.225526,3.519027,3.963188,4.530281,4.594956,512
4.634369,4.377041,2.829811,2.363948,4.605972,512
4.495629,3.14125,4.623668,4.412084,2.110735,512
2.284418,3.737247,3.779795,4.486261,4.483755,512
4.594227,4.569344,2.995249,2.35691,4.38324,512
4.536472,2.89775,4.596218,4.540134,2.45229,512
2.161211,4.003943,3.540947,4.526257,4.586534,512
4.49558,4.477924,3.294861,2.189989,4.221743,512
4.540555,2.678768,4.558064,4.413279,2.535707,512
2.200436,4.157631,3.334644,4.561433,4.610515,512
4.591876,4.477194,3.564498,2.263258,3.990355,512
4.553625,2.312692,4.523345,4.56975,2.843585,512
2.103761,4.511861,3.086577,4.494178,4.523219,512
4.588208,4.530685,3.763111,2.227128,3.619985,512
4.312278,2.290367,4.486837,4.51391,3.021036,512
2.31899,4.461918,2.675216,4.615469,4.52444,512
4.619624,4.54948,4.150198,2.145618,3.251158,512
3.914143,2.244006,4.517996,4.520673,3.488639,512
2.804249,4.618603,2.211853,4.537529,4.423455,512
2.875677,2.749489,2.961555,1.471793,2.078623,8192
2.359727,1.504541,2.815955,2.924561,2.510112,8192
2.14376,3.015436,1.453745,2.705574,2.754272,8192
2.696678,2.760815,3.055677,1.786903,1.822681,8192
2.212646,1.563337,2.75576,2.944629,2.737654,8192
2.238899,3.017755,1.459498,2.655088,2.731752,8192
2.825138,2.903309,2.959697,1.82858,1.662336,8192
2.08616,1.485599,2.713894,2.875731,2.861395,8192
2.495646,2.946248,1.474451,2.411265,2.70684,8192
2.769851,2.967419,2.934022,1.830127,1.642787,8192
2.083938,1.50728,2.730518,2.822524,2.951599,8192
2.459274,2.934376,1.397112,2.432999,2.830795,8192
2.723694,2.893549,3.039314,1.947791,1.513157,8192
2.000752,1.597006,2.755308,2.838409,3.027645,8192
2.588595,2.88876,1.387771,2.288854,2.821213,8192
2.698652,2.715831,3.071876,2.131863,1.449365,8192
1.730148,1.640511,2.832299,2.873223,3.081373,8192
2.685267,2.925953,1.582936,2.131787,2.781351,8192
2.726968,2.6029,2.94132,2.321061,1.567454,8192
1.53823,1.757362,2.817831,2.811195,2.954291,8192
2.888744,2.863295,1.548904,2.115497,2.807349,8192
2.741959,2.462439,2.911919,2.347883,1.443265,8192
1.493971,1.874462,2.824917,2.773844,3.005682,8192
2.960395,2.78749,1.478857,1.912334,2.836049,8192
2.7571,2.355637,2.978804,2.619578,1.414291,8192
1.535301,2.168218,2.779889,2.710178,3.03332,8192
3.160098,2.814313,1.594797,1.743358,2.839672,8192
2.767361,2.192587,2.923522,2.672739,1.437684,8192
1.401798,2.510312,2.445651,2.777085,3.008694,8192
2.858221,2.789115,1.812794,1.583722,2.910642,8192
2.811708,2.20849,2.781472,2.867385,1.77583,8192
1.293273,2.563369,2.432013,2.792894,2.860084,8192
3.026382,2.730009,2.300193,1.277585,2.780779,8192
2.840563,1.956329,2.748143,3.05271,1.428679,8192
1.603665,2.403407,2.142678,2.845793,2.996165,8192
3.09775,2.786289,2.159779,1.540579,2.694502,8192
2.801359,1.83172,2.977111,2.92947,1.531967,8192
1.591693,2.516144,2.402552,2.766217,2.856381,8192
3.233079,2.755712,2.227372,1.480555,2.434562,8192
2.830375,1.604785,2.853025,2.850986,1.927576,8192
1.310759,3.158309,2.603221,2.764802,2.755278,8192
2.932645,2.774498,2.398697,1.455142,2.473287,8192
2.877119,1.574233,2.831698,2.828469,1.95363,8192
1.448156,2.907869,1.861509,2.807126,2.970515,8192
3.062258,2.800272,2.457629,1.53584,2.406144,8192
2.803517,1.530358,2.839854,3.162715,2.130869,8192
1.825933,3.105886,1.860984,2.899827,2.889343,8192
2.940387,2.747759,2.810796,1.535037,2.345546,8192
2.722891,1.452474,2.811866,3.013553,2.128009,8192
1.609585,3.185085,1.74948,2.884918,2.773536,8192
2.975693,2.901145,2.977063,1.489515,2.167384,8192
2.514484,1.512357,2.889155,3.129365,2.303907,8192
1.928179,3.149484,1.558931,2.966449,2.857638,8192
3.035079,2.967671,3.116493,1.432917,1.947874,8192
2.535094,1.58603,2.931443,2.999644,2.672828,8192
2.221152,3.162347,1.513895,2.884723,2.944542,8192
2.982404,3.025328,3.062388,1.66212,2.04375,8192
2.491022,1.592068,2.95637,3.193805,2.648019,8192
2.174708,3.217269,1.601746,2.90834,2.933525,8192
3.06142,3.063085,3.194523,1.735664,1.883765,8192
2.530237,1.51463,2.912766,3.180334,3.000377,8192
2.308612,3.331226,1.570331,2.816604,3.105326,8192
3.050907,3.101222,3.251332,2.011332,1.896476,8192
2.335132,1.382574,3.053607,3.091549,3.110419,8192
2.56285,3.277842,1.6084,2.768987,3.050363,8192
3.008745,3.124496,3.11964,1.989672,1.705089,8192
2.213158,1.573624,3.016514,3.086016,3.139766,8192
2.647175,3.161528,1.643198,2.691696,2.968843,8192
2.928074,3.145212,3.214774,2.14073,1.600812,8192
2.350933,1.496312,2.980548,3.17019,3.246498,8192
2.706819,3.14225,1.569896,2.683489,3.055405,8192
2.992936,3.170554,3.330039,2.161232,1.657811,8192
2.038267,1.638218,3.134829,3.135651,3.237437,8192
2.857073,3.266737,1.64656,2.557618,2.982139,8192
3.16188,3.066659,3.285669,2.30089,1.646686,8192
1.877408,1.817756,3.254869,3.190752,3.326356,8192
3.258905,3.282144,1.62748,2.265674,3.180486,8192
3.159465,2.766301,3.381809,2.698549,1.679718,8192
1.62521,2.219596,3.261324,3.120592,3.266372,8192
3.326069,3.202231,1.604062,2.151735,3.200018,8192
3.13226,2.687933,3.207579,2.911739,1.663232,8192
1.774172,2.330813,3.081836,3.265878,3.389507,8192
3.413805,3.256089,1.753437,1.99619,3.233676,8192
3.24507,2.450984,3.256205,3.216537,1.584569,8192
1.717924,2.627705,2.948502,3.193077,3.430474,8192
3.263759,3.245804,2.04011,1.945406,3.239437,8192
3.258484,2.594385,3.357303,3.151685,1.552212,8192
1.739994,2.521797,3.040059,3.284253,3.433258,8192
3.603582,3.183691,2.06923,1.789396,3.322668,8192
3.240096,2.4191,3.367319,3.297754,1.6492,8192
1.694243,2.846483,2.901409,3.31589,3.422811,8192
3.515859,3.207922,2.230476,1.788684,3.440906,8192
3.25293,2.408856,3.391334,3.480874,1.720089,8192
1.721025,2.874918,2.912048,3.359454,3.449534,8192
3.624912,3.129705,2.345007,1.685669,3.217849,8192
3.1941,2.255905,3.229772,3.354117,1.831067,8192
1.772556,2.938937,2.722157,3.25985,3.287179,8192
3.456746,3.317865,2.280405,1.828484,3.198146,8192
3.301581,2.182948,3.288477,3.424889,1.85483,8192
1.740494,3.027106,2.587133,3.252423,3.305855,8192
